<?xml version="1.0" encoding="UTF-8"?>
<!DOCTYPE plist PUBLIC "-//Apple//DTD PLIST 1.0//EN" "http://www.apple.com/DTDs/PropertyList-1.0.dtd">
<plist version="1.0">
<dict>
	<key>columns</key>
	<array>
		<string>OPEN</string>
		<string>CLOSE</string>
		<string>HIGH</string>
		<string>LOW</string>
		<string>VALUE</string>
		<string>VOLUME</string>
		<string>FROM</string>
		<string>TILL</string>
	</array>
	<key>data</key>
	<array>
		<array>
			<array>
				<real>0.10548</real>
				<integer>5</integer>
			</array>
			<array>
				<real>0.105</real>
				<integer>5</integer>
			</array>
			<array>
				<real>0.10594000000000001</real>
				<integer>5</integer>
			</array>
			<array>
				<real>0.10464</real>
				<integer>5</integer>
			</array>
			<array>
				<real>19515290.899999999</real>
				<integer>5</integer>
			</array>
			<integer>185660000</integer>
			<string>2013-06-06 10:30:00</string>
			<string>2013-06-06 10:39:59</string>
		</array>
		<array>
			<array>
				<real>0.10501000000000001</real>
				<integer>5</integer>
			</array>
			<array>
				<real>0.10484</real>
				<integer>5</integer>
			</array>
			<array>
				<real>0.10535</real>
				<integer>5</integer>
			</array>
			<array>
				<real>0.1045</real>
				<integer>5</integer>
			</array>
			<array>
				<real>11088911.4</real>
				<integer>5</integer>
			</array>
			<integer>105600000</integer>
			<string>2013-06-06 10:40:00</string>
			<string>2013-06-06 10:49:59</string>
		</array>
		<array>
			<array>
				<real>0.10476000000000001</real>
				<integer>5</integer>
			</array>
			<array>
				<real>0.1048</real>
				<integer>5</integer>
			</array>
			<array>
				<real>0.10488</real>
				<integer>5</integer>
			</array>
			<array>
				<real>0.10452</real>
				<integer>5</integer>
			</array>
			<array>
				<real>8008702.9000000004</real>
				<integer>5</integer>
			</array>
			<integer>76460000</integer>
			<string>2013-06-06 10:50:00</string>
			<string>2013-06-06 10:59:59</string>
		</array>
		<array>
			<array>
				<real>0.10476000000000001</real>
				<integer>5</integer>
			</array>
			<array>
				<real>0.10543</real>
				<integer>5</integer>
			</array>
			<array>
				<real>0.10580000000000001</real>
				<integer>5</integer>
			</array>
			<array>
				<real>0.10476000000000001</real>
				<integer>5</integer>
			</array>
			<array>
				<integer>33150826</integer>
				<integer>5</integer>
			</array>
			<integer>314480000</integer>
			<string>2013-06-06 11:00:00</string>
			<string>2013-06-06 11:09:59</string>
		</array>
		<array>
			<array>
				<real>0.10549</real>
				<integer>5</integer>
			</array>
			<array>
				<real>0.10485</real>
				<integer>5</integer>
			</array>
			<array>
				<real>0.10564</real>
				<integer>5</integer>
			</array>
			<array>
				<real>0.10483000000000001</real>
				<integer>5</integer>
			</array>
			<array>
				<real>8533612.9000000004</real>
				<integer>5</integer>
			</array>
			<integer>81200000</integer>
			<string>2013-06-06 11:10:00</string>
			<string>2013-06-06 11:19:59</string>
		</array>
		<array>
			<array>
				<real>0.10485</real>
				<integer>5</integer>
			</array>
			<array>
				<real>0.1046</real>
				<integer>5</integer>
			</array>
			<array>
				<real>0.10521</real>
				<integer>5</integer>
			</array>
			<array>
				<real>0.10406</real>
				<integer>5</integer>
			</array>
			<array>
				<real>11908690.199999999</real>
				<integer>5</integer>
			</array>
			<integer>113790000</integer>
			<string>2013-06-06 11:20:00</string>
			<string>2013-06-06 11:29:59</string>
		</array>
		<array>
			<array>
				<real>0.10460999999999999</real>
				<integer>5</integer>
			</array>
			<array>
				<real>0.10448</real>
				<integer>5</integer>
			</array>
			<array>
				<real>0.1048</real>
				<integer>5</integer>
			</array>
			<array>
				<real>0.104</real>
				<integer>5</integer>
			</array>
			<array>
				<real>8173173.5999999996</real>
				<integer>5</integer>
			</array>
			<integer>78360000</integer>
			<string>2013-06-06 11:30:00</string>
			<string>2013-06-06 11:39:59</string>
		</array>
		<array>
			<array>
				<real>0.10445</real>
				<integer>5</integer>
			</array>
			<array>
				<real>0.10501000000000001</real>
				<integer>5</integer>
			</array>
			<array>
				<real>0.10544000000000001</real>
				<integer>5</integer>
			</array>
			<array>
				<real>0.10423</real>
				<integer>5</integer>
			</array>
			<array>
				<real>21215256.699999999</real>
				<integer>5</integer>
			</array>
			<integer>202020000</integer>
			<string>2013-06-06 11:40:00</string>
			<string>2013-06-06 11:49:59</string>
		</array>
		<array>
			<array>
				<real>0.10501000000000001</real>
				<integer>5</integer>
			</array>
			<array>
				<real>0.105</real>
				<integer>5</integer>
			</array>
			<array>
				<real>0.10518</real>
				<integer>5</integer>
			</array>
			<array>
				<real>0.10484</real>
				<integer>5</integer>
			</array>
			<array>
				<real>4595624.2999999998</real>
				<integer>5</integer>
			</array>
			<integer>43790000</integer>
			<string>2013-06-06 11:50:00</string>
			<string>2013-06-06 11:59:59</string>
		</array>
		<array>
			<array>
				<real>0.105</real>
				<integer>5</integer>
			</array>
			<array>
				<real>0.10489999999999999</real>
				<integer>5</integer>
			</array>
			<array>
				<real>0.105</real>
				<integer>5</integer>
			</array>
			<array>
				<real>0.1048</real>
				<integer>5</integer>
			</array>
			<array>
				<real>5154816.5999999996</real>
				<integer>5</integer>
			</array>
			<integer>49120000</integer>
			<string>2013-06-06 12:00:00</string>
			<string>2013-06-06 12:09:59</string>
		</array>
		<array>
			<array>
				<real>0.10489999999999999</real>
				<integer>5</integer>
			</array>
			<array>
				<real>0.10471</real>
				<integer>5</integer>
			</array>
			<array>
				<real>0.10493</real>
				<integer>5</integer>
			</array>
			<array>
				<real>0.10471</real>
				<integer>5</integer>
			</array>
			<array>
				<real>2597586.2000000002</real>
				<integer>5</integer>
			</array>
			<integer>24780000</integer>
			<string>2013-06-06 12:10:00</string>
			<string>2013-06-06 12:19:59</string>
		</array>
		<array>
			<array>
				<real>0.10471</real>
				<integer>5</integer>
			</array>
			<array>
				<real>0.10460999999999999</real>
				<integer>5</integer>
			</array>
			<array>
				<real>0.10476000000000001</real>
				<integer>5</integer>
			</array>
			<array>
				<real>0.10425</real>
				<integer>5</integer>
			</array>
			<array>
				<integer>7258785</integer>
				<integer>5</integer>
			</array>
			<integer>69400000</integer>
			<string>2013-06-06 12:20:00</string>
			<string>2013-06-06 12:29:59</string>
		</array>
		<array>
			<array>
				<real>0.10465000000000001</real>
				<integer>5</integer>
			</array>
			<array>
				<real>0.10481</real>
				<integer>5</integer>
			</array>
			<array>
				<real>0.105</real>
				<integer>5</integer>
			</array>
			<array>
				<real>0.10465000000000001</real>
				<integer>5</integer>
			</array>
			<array>
				<real>6655585.7000000002</real>
				<integer>5</integer>
			</array>
			<integer>63440000</integer>
			<string>2013-06-06 12:30:00</string>
			<string>2013-06-06 12:39:59</string>
		</array>
		<array>
			<array>
				<real>0.10481</real>
				<integer>5</integer>
			</array>
			<array>
				<real>0.10449</real>
				<integer>5</integer>
			</array>
			<array>
				<real>0.10493</real>
				<integer>5</integer>
			</array>
			<array>
				<real>0.10433000000000001</real>
				<integer>5</integer>
			</array>
			<array>
				<real>4486484.2999999998</real>
				<integer>5</integer>
			</array>
			<integer>42880000</integer>
			<string>2013-06-06 12:40:00</string>
			<string>2013-06-06 12:49:59</string>
		</array>
		<array>
			<array>
				<real>0.10440000000000001</real>
				<integer>5</integer>
			</array>
			<array>
				<real>0.10435999999999999</real>
				<integer>5</integer>
			</array>
			<array>
				<real>0.1046</real>
				<integer>5</integer>
			</array>
			<array>
				<real>0.10431</real>
				<integer>5</integer>
			</array>
			<array>
				<real>2923634.7999999998</real>
				<integer>5</integer>
			</array>
			<integer>27980000</integer>
			<string>2013-06-06 12:50:00</string>
			<string>2013-06-06 12:59:59</string>
		</array>
		<array>
			<array>
				<real>0.10445</real>
				<integer>5</integer>
			</array>
			<array>
				<real>0.1036</real>
				<integer>5</integer>
			</array>
			<array>
				<real>0.10449</real>
				<integer>5</integer>
			</array>
			<array>
				<real>0.10321</real>
				<integer>5</integer>
			</array>
			<array>
				<real>13773970.300000001</real>
				<integer>5</integer>
			</array>
			<integer>132670000</integer>
			<string>2013-06-06 13:00:00</string>
			<string>2013-06-06 13:09:59</string>
		</array>
		<array>
			<array>
				<real>0.10362</real>
				<integer>5</integer>
			</array>
			<array>
				<real>0.1038</real>
				<integer>5</integer>
			</array>
			<array>
				<real>0.10399</real>
				<integer>5</integer>
			</array>
			<array>
				<real>0.10301</real>
				<integer>5</integer>
			</array>
			<array>
				<real>9879692.1999999993</real>
				<integer>5</integer>
			</array>
			<integer>95440000</integer>
			<string>2013-06-06 13:10:00</string>
			<string>2013-06-06 13:19:59</string>
		</array>
		<array>
			<array>
				<real>0.1038</real>
				<integer>5</integer>
			</array>
			<array>
				<real>0.10351</real>
				<integer>5</integer>
			</array>
			<array>
				<real>0.1038</real>
				<integer>5</integer>
			</array>
			<array>
				<real>0.10308</real>
				<integer>5</integer>
			</array>
			<array>
				<real>7886011.4000000004</real>
				<integer>5</integer>
			</array>
			<integer>76180000</integer>
			<string>2013-06-06 13:20:00</string>
			<string>2013-06-06 13:29:59</string>
		</array>
		<array>
			<array>
				<real>0.10346</real>
				<integer>5</integer>
			</array>
			<array>
				<real>0.10274999999999999</real>
				<integer>5</integer>
			</array>
			<array>
				<real>0.10346</real>
				<integer>5</integer>
			</array>
			<array>
				<real>0.1023</real>
				<integer>5</integer>
			</array>
			<array>
				<real>31495264.699999999</real>
				<integer>5</integer>
			</array>
			<integer>306250000</integer>
			<string>2013-06-06 13:30:00</string>
			<string>2013-06-06 13:39:59</string>
		</array>
		<array>
			<array>
				<real>0.10274999999999999</real>
				<integer>5</integer>
			</array>
			<array>
				<real>0.10216</real>
				<integer>5</integer>
			</array>
			<array>
				<real>0.10298</real>
				<integer>5</integer>
			</array>
			<array>
				<real>0.10156</real>
				<integer>5</integer>
			</array>
			<array>
				<integer>38614712</integer>
				<integer>5</integer>
			</array>
			<integer>377500000</integer>
			<string>2013-06-06 13:40:00</string>
			<string>2013-06-06 13:49:59</string>
		</array>
		<array>
			<array>
				<real>0.10224999999999999</real>
				<integer>5</integer>
			</array>
			<array>
				<real>0.10227</real>
				<integer>5</integer>
			</array>
			<array>
				<real>0.1024</real>
				<integer>5</integer>
			</array>
			<array>
				<real>0.10184</real>
				<integer>5</integer>
			</array>
			<array>
				<real>8763514.3000000007</real>
				<integer>5</integer>
			</array>
			<integer>85750000</integer>
			<string>2013-06-06 13:50:00</string>
			<string>2013-06-06 13:59:59</string>
		</array>
		<array>
			<array>
				<real>0.10228</real>
				<integer>5</integer>
			</array>
			<array>
				<real>0.10264</real>
				<integer>5</integer>
			</array>
			<array>
				<real>0.10288</real>
				<integer>5</integer>
			</array>
			<array>
				<real>0.10195</real>
				<integer>5</integer>
			</array>
			<array>
				<real>22192061.300000001</real>
				<integer>5</integer>
			</array>
			<integer>216870000</integer>
			<string>2013-06-06 14:00:00</string>
			<string>2013-06-06 14:09:59</string>
		</array>
		<array>
			<array>
				<real>0.10267</real>
				<integer>5</integer>
			</array>
			<array>
				<real>0.1022</real>
				<integer>5</integer>
			</array>
			<array>
				<real>0.10267</real>
				<integer>5</integer>
			</array>
			<array>
				<real>0.10199999999999999</real>
				<integer>5</integer>
			</array>
			<array>
				<real>8717670.1999999993</real>
				<integer>5</integer>
			</array>
			<integer>85170000</integer>
			<string>2013-06-06 14:10:00</string>
			<string>2013-06-06 14:19:59</string>
		</array>
		<array>
			<array>
				<real>0.1023</real>
				<integer>5</integer>
			</array>
			<array>
				<real>0.1008</real>
				<integer>5</integer>
			</array>
			<array>
				<real>0.1023</real>
				<integer>5</integer>
			</array>
			<array>
				<real>0.1008</real>
				<integer>5</integer>
			</array>
			<array>
				<real>29767357.199999999</real>
				<integer>5</integer>
			</array>
			<integer>293270000</integer>
			<string>2013-06-06 14:20:00</string>
			<string>2013-06-06 14:29:59</string>
		</array>
		<array>
			<array>
				<real>0.1008</real>
				<integer>5</integer>
			</array>
			<array>
				<real>0.10088</real>
				<integer>5</integer>
			</array>
			<array>
				<real>0.10102</real>
				<integer>5</integer>
			</array>
			<array>
				<real>0.10027</real>
				<integer>5</integer>
			</array>
			<array>
				<real>29609036.800000001</real>
				<integer>5</integer>
			</array>
			<integer>294300000</integer>
			<string>2013-06-06 14:30:00</string>
			<string>2013-06-06 14:39:59</string>
		</array>
		<array>
			<array>
				<real>0.10088999999999999</real>
				<integer>5</integer>
			</array>
			<array>
				<real>0.1012</real>
				<integer>5</integer>
			</array>
			<array>
				<real>0.1013</real>
				<integer>5</integer>
			</array>
			<array>
				<real>0.10076</real>
				<integer>5</integer>
			</array>
			<array>
				<real>13567056.199999999</real>
				<integer>5</integer>
			</array>
			<integer>134210000</integer>
			<string>2013-06-06 14:40:00</string>
			<string>2013-06-06 14:49:59</string>
		</array>
		<array>
			<array>
				<real>0.10126</real>
				<integer>5</integer>
			</array>
			<array>
				<real>0.1013</real>
				<integer>5</integer>
			</array>
			<array>
				<real>0.10178</real>
				<integer>5</integer>
			</array>
			<array>
				<real>0.10120999999999999</real>
				<integer>5</integer>
			</array>
			<array>
				<real>6238832.2000000002</real>
				<integer>5</integer>
			</array>
			<integer>61500000</integer>
			<string>2013-06-06 14:50:00</string>
			<string>2013-06-06 14:59:59</string>
		</array>
		<array>
			<array>
				<real>0.1013</real>
				<integer>5</integer>
			</array>
			<array>
				<real>0.10144</real>
				<integer>5</integer>
			</array>
			<array>
				<real>0.10155</real>
				<integer>5</integer>
			</array>
			<array>
				<real>0.1013</real>
				<integer>5</integer>
			</array>
			<array>
				<real>4126554.1000000001</real>
				<integer>5</integer>
			</array>
			<integer>40670000</integer>
			<string>2013-06-06 15:00:00</string>
			<string>2013-06-06 15:09:59</string>
		</array>
		<array>
			<array>
				<real>0.10138</real>
				<integer>5</integer>
			</array>
			<array>
				<real>0.10131999999999999</real>
				<integer>5</integer>
			</array>
			<array>
				<real>0.10150000000000001</real>
				<integer>5</integer>
			</array>
			<array>
				<real>0.10113</real>
				<integer>5</integer>
			</array>
			<array>
				<real>6769426.4000000004</real>
				<integer>5</integer>
			</array>
			<integer>66800000</integer>
			<string>2013-06-06 15:10:00</string>
			<string>2013-06-06 15:19:59</string>
		</array>
		<array>
			<array>
				<real>0.10138</real>
				<integer>5</integer>
			</array>
			<array>
				<real>0.10172</real>
				<integer>5</integer>
			</array>
			<array>
				<real>0.10173</real>
				<integer>5</integer>
			</array>
			<array>
				<real>0.10128</real>
				<integer>5</integer>
			</array>
			<array>
				<real>4727266.5999999996</real>
				<integer>5</integer>
			</array>
			<integer>46560000</integer>
			<string>2013-06-06 15:20:00</string>
			<string>2013-06-06 15:29:59</string>
		</array>
		<array>
			<array>
				<real>0.10170999999999999</real>
				<integer>5</integer>
			</array>
			<array>
				<real>0.10234</real>
				<integer>5</integer>
			</array>
			<array>
				<real>0.10274</real>
				<integer>5</integer>
			</array>
			<array>
				<real>0.10148</real>
				<integer>5</integer>
			</array>
			<array>
				<real>17637405.800000001</real>
				<integer>5</integer>
			</array>
			<integer>172470000</integer>
			<string>2013-06-06 15:30:00</string>
			<string>2013-06-06 15:39:59</string>
		</array>
		<array>
			<array>
				<real>0.10223</real>
				<integer>5</integer>
			</array>
			<array>
				<real>0.10185</real>
				<integer>5</integer>
			</array>
			<array>
				<real>0.10238999999999999</real>
				<integer>5</integer>
			</array>
			<array>
				<real>0.10153</real>
				<integer>5</integer>
			</array>
			<array>
				<real>15432250.800000001</real>
				<integer>5</integer>
			</array>
			<integer>151250000</integer>
			<string>2013-06-06 15:40:00</string>
			<string>2013-06-06 15:49:59</string>
		</array>
		<array>
			<array>
				<real>0.10194</real>
				<integer>5</integer>
			</array>
			<array>
				<real>0.10203</real>
				<integer>5</integer>
			</array>
			<array>
				<real>0.10223</real>
				<integer>5</integer>
			</array>
			<array>
				<real>0.10194</real>
				<integer>5</integer>
			</array>
			<array>
				<integer>3121013</integer>
				<integer>5</integer>
			</array>
			<integer>30580000</integer>
			<string>2013-06-06 15:50:00</string>
			<string>2013-06-06 15:59:59</string>
		</array>
		<array>
			<array>
				<real>0.1021</real>
				<integer>5</integer>
			</array>
			<array>
				<real>0.10319</real>
				<integer>5</integer>
			</array>
			<array>
				<real>0.10363</real>
				<integer>5</integer>
			</array>
			<array>
				<real>0.1021</real>
				<integer>5</integer>
			</array>
			<array>
				<real>17169922.300000001</real>
				<integer>5</integer>
			</array>
			<integer>166380000</integer>
			<string>2013-06-06 16:00:00</string>
			<string>2013-06-06 16:09:59</string>
		</array>
		<array>
			<array>
				<real>0.10312</real>
				<integer>5</integer>
			</array>
			<array>
				<real>0.10278</real>
				<integer>5</integer>
			</array>
			<array>
				<real>0.10371</real>
				<integer>5</integer>
			</array>
			<array>
				<real>0.10256999999999999</real>
				<integer>5</integer>
			</array>
			<array>
				<integer>17035530</integer>
				<integer>5</integer>
			</array>
			<integer>164910000</integer>
			<string>2013-06-06 16:10:00</string>
			<string>2013-06-06 16:19:59</string>
		</array>
		<array>
			<array>
				<real>0.10277</real>
				<integer>5</integer>
			</array>
			<array>
				<real>0.10306</real>
				<integer>5</integer>
			</array>
			<array>
				<real>0.10324999999999999</real>
				<integer>5</integer>
			</array>
			<array>
				<real>0.10266</real>
				<integer>5</integer>
			</array>
			<array>
				<real>8031887.2000000002</real>
				<integer>5</integer>
			</array>
			<integer>78030000</integer>
			<string>2013-06-06 16:20:00</string>
			<string>2013-06-06 16:29:59</string>
		</array>
		<array>
			<array>
				<real>0.10305</real>
				<integer>5</integer>
			</array>
			<array>
				<real>0.1037</real>
				<integer>5</integer>
			</array>
			<array>
				<real>0.10385</real>
				<integer>5</integer>
			</array>
			<array>
				<real>0.10223</real>
				<integer>5</integer>
			</array>
			<array>
				<real>13131926.300000001</real>
				<integer>5</integer>
			</array>
			<integer>127310000</integer>
			<string>2013-06-06 16:30:00</string>
			<string>2013-06-06 16:39:59</string>
		</array>
		<array>
			<array>
				<real>0.10369</real>
				<integer>5</integer>
			</array>
			<array>
				<real>0.10331</real>
				<integer>5</integer>
			</array>
			<array>
				<real>0.10440000000000001</real>
				<integer>5</integer>
			</array>
			<array>
				<real>0.10315000000000001</real>
				<integer>5</integer>
			</array>
			<array>
				<real>16125894.1</real>
				<integer>5</integer>
			</array>
			<integer>155310000</integer>
			<string>2013-06-06 16:40:00</string>
			<string>2013-06-06 16:49:59</string>
		</array>
		<array>
			<array>
				<real>0.10328</real>
				<integer>5</integer>
			</array>
			<array>
				<real>0.10321</real>
				<integer>5</integer>
			</array>
			<array>
				<real>0.10335999999999999</real>
				<integer>5</integer>
			</array>
			<array>
				<real>0.10261000000000001</real>
				<integer>5</integer>
			</array>
			<array>
				<real>6481431.5</real>
				<integer>5</integer>
			</array>
			<integer>62980000</integer>
			<string>2013-06-06 16:50:00</string>
			<string>2013-06-06 16:59:59</string>
		</array>
		<array>
			<array>
				<real>0.10326</real>
				<integer>5</integer>
			</array>
			<array>
				<real>0.10126</real>
				<integer>5</integer>
			</array>
			<array>
				<real>0.10331</real>
				<integer>5</integer>
			</array>
			<array>
				<real>0.10101</real>
				<integer>5</integer>
			</array>
			<array>
				<real>18811861.899999999</real>
				<integer>5</integer>
			</array>
			<integer>184820000</integer>
			<string>2013-06-06 17:00:00</string>
			<string>2013-06-06 17:09:59</string>
		</array>
		<array>
			<array>
				<real>0.10126</real>
				<integer>5</integer>
			</array>
			<array>
				<real>0.10125000000000001</real>
				<integer>5</integer>
			</array>
			<array>
				<real>0.10183</real>
				<integer>5</integer>
			</array>
			<array>
				<real>0.10102999999999999</real>
				<integer>5</integer>
			</array>
			<array>
				<real>10382732.199999999</real>
				<integer>5</integer>
			</array>
			<integer>102470000</integer>
			<string>2013-06-06 17:10:00</string>
			<string>2013-06-06 17:19:59</string>
		</array>
		<array>
			<array>
				<real>0.10120999999999999</real>
				<integer>5</integer>
			</array>
			<array>
				<real>0.10045</real>
				<integer>5</integer>
			</array>
			<array>
				<real>0.10138</real>
				<integer>5</integer>
			</array>
			<array>
				<real>0.099510000000000001</real>
				<integer>5</integer>
			</array>
			<array>
				<real>52958324.399999999</real>
				<integer>5</integer>
			</array>
			<integer>527400000</integer>
			<string>2013-06-06 17:20:00</string>
			<string>2013-06-06 17:29:59</string>
		</array>
		<array>
			<array>
				<real>0.10032000000000001</real>
				<integer>5</integer>
			</array>
			<array>
				<real>0.1012</real>
				<integer>5</integer>
			</array>
			<array>
				<real>0.10145999999999999</real>
				<integer>5</integer>
			</array>
			<array>
				<real>0.10001</real>
				<integer>5</integer>
			</array>
			<array>
				<real>17657903.199999999</real>
				<integer>5</integer>
			</array>
			<integer>175450000</integer>
			<string>2013-06-06 17:30:00</string>
			<string>2013-06-06 17:39:59</string>
		</array>
		<array>
			<array>
				<real>0.10117</real>
				<integer>5</integer>
			</array>
			<array>
				<real>0.10138</real>
				<integer>5</integer>
			</array>
			<array>
				<real>0.1016</real>
				<integer>5</integer>
			</array>
			<array>
				<real>0.10116</real>
				<integer>5</integer>
			</array>
			<array>
				<real>10162580.9</real>
				<integer>5</integer>
			</array>
			<integer>100180000</integer>
			<string>2013-06-06 17:40:00</string>
			<string>2013-06-06 17:49:59</string>
		</array>
		<array>
			<array>
				<real>0.10138</real>
				<integer>5</integer>
			</array>
			<array>
				<real>0.10143000000000001</real>
				<integer>5</integer>
			</array>
			<array>
				<real>0.10155</real>
				<integer>5</integer>
			</array>
			<array>
				<real>0.1013</real>
				<integer>5</integer>
			</array>
			<array>
				<real>8579977.1999999993</real>
				<integer>5</integer>
			</array>
			<integer>84630000</integer>
			<string>2013-06-06 17:50:00</string>
			<string>2013-06-06 17:59:59</string>
		</array>
		<array>
			<array>
				<real>0.10141</real>
				<integer>5</integer>
			</array>
			<array>
				<real>0.1021</real>
				<integer>5</integer>
			</array>
			<array>
				<real>0.10269</real>
				<integer>5</integer>
			</array>
			<array>
				<real>0.10141</real>
				<integer>5</integer>
			</array>
			<array>
				<real>15217861.199999999</real>
				<integer>5</integer>
			</array>
			<integer>148860000</integer>
			<string>2013-06-06 18:00:00</string>
			<string>2013-06-06 18:09:59</string>
		</array>
		<array>
			<array>
				<real>0.10213</real>
				<integer>5</integer>
			</array>
			<array>
				<real>0.10149</real>
				<integer>5</integer>
			</array>
			<array>
				<real>0.10215</real>
				<integer>5</integer>
			</array>
			<array>
				<real>0.10112</real>
				<integer>5</integer>
			</array>
			<array>
				<integer>8063029</integer>
				<integer>5</integer>
			</array>
			<integer>79390000</integer>
			<string>2013-06-06 18:10:00</string>
			<string>2013-06-06 18:19:59</string>
		</array>
		<array>
			<array>
				<real>0.10145</real>
				<integer>5</integer>
			</array>
			<array>
				<real>0.10248</real>
				<integer>5</integer>
			</array>
			<array>
				<real>0.10248</real>
				<integer>5</integer>
			</array>
			<array>
				<real>0.10125000000000001</real>
				<integer>5</integer>
			</array>
			<array>
				<integer>8914391</integer>
				<integer>5</integer>
			</array>
			<integer>87530000</integer>
			<string>2013-06-06 18:20:00</string>
			<string>2013-06-06 18:29:59</string>
		</array>
		<array>
			<array>
				<real>0.10234</real>
				<integer>5</integer>
			</array>
			<array>
				<real>0.10156999999999999</real>
				<integer>5</integer>
			</array>
			<array>
				<real>0.10249999999999999</real>
				<integer>5</integer>
			</array>
			<array>
				<real>0.10135</real>
				<integer>5</integer>
			</array>
			<array>
				<real>12751851.9</real>
				<integer>5</integer>
			</array>
			<integer>125060000</integer>
			<string>2013-06-06 18:30:00</string>
			<string>2013-06-06 18:39:59</string>
		</array>
		<array>
			<array>
				<real>0.10156999999999999</real>
				<integer>5</integer>
			</array>
			<array>
				<real>0.1012</real>
				<integer>5</integer>
			</array>
			<array>
				<real>0.10156999999999999</real>
				<integer>5</integer>
			</array>
			<array>
				<real>0.10088999999999999</real>
				<integer>5</integer>
			</array>
			<array>
				<real>10650782.4</real>
				<integer>5</integer>
			</array>
			<integer>105320000</integer>
			<string>2013-06-06 18:40:00</string>
			<string>2013-06-06 18:49:59</string>
		</array>
	</array>
</dict>
</plist>
