{
"candles": {
	"metadata": {
		"open": {"type": "double"},
		"close": {"type": "double"},
		"high": {"type": "double"},
		"low": {"type": "double"},
		"value": {"type": "double"},
		"volume": {"type": "double"},
		"begin": {"type": "datetime", "bytes": 19, "max_size": 0},
		"end": {"type": "datetime", "bytes": 19, "max_size": 0}
	},
	"columns": ["open", "close", "high", "low", "value", "volume", "begin", "end"], 
	"data": [
		[1762, 1760.6, 1762.4, 1758.7, 197393145.3, 112122, "2012-01-31 16:30:00", "2012-01-31 16:39:59"],
		[1760.6, 1762, 1762.5, 1760, 62736657.8, 35626, "2012-01-31 16:40:00", "2012-01-31 16:49:59"],
		[1762, 1760.7, 1762.9, 1760.7, 38666898.9, 21943, "2012-01-31 16:50:00", "2012-01-31 16:59:59"],
		[1760.7, 1762.8, 1762.8, 1759.8, 29073231.6, 16510, "2012-01-31 17:00:00", "2012-01-31 17:09:59"],
		[1762.6, 1762, 1762.8, 1762, 10401052.1, 5902, "2012-01-31 17:10:00", "2012-01-31 17:19:59"],
		[1762.1, 1760.9, 1762.3, 1759, 31719429.1, 18019, "2012-01-31 17:20:00", "2012-01-31 17:29:59"],
		[1760.9, 1760.3, 1762.9, 1760.1, 29342814.8, 16655, "2012-01-31 17:30:00", "2012-01-31 17:39:59"],
		[1760.2, 1761, 1762.2, 1758.7, 50773255.2, 28840, "2012-01-31 17:40:00", "2012-01-31 17:49:59"],
		[1761, 1760.4, 1762, 1759.4, 52105380.5, 29592, "2012-01-31 17:50:00", "2012-01-31 17:59:59"],
		[1760.3, 1763.7, 1765.4, 1756.5, 201826781.1, 114662, "2012-01-31 18:00:00", "2012-01-31 18:09:59"],
		[1763.8, 1768.4, 1768.6, 1762.1, 171452624.7, 97080, "2012-01-31 18:10:00", "2012-01-31 18:19:59"],
		[1767.6, 1770.6, 1771.5, 1767.6, 116530153.6, 65854, "2012-01-31 18:20:00", "2012-01-31 18:29:59"],
		[1770.6, 1773.1, 1773.7, 1770, 111689456.7, 63054, "2012-01-31 18:30:00", "2012-01-31 18:39:59"],
		[1773.1, 1766.3, 1775, 1766.3, 135644316.2, 76567, "2012-01-31 18:40:00", "2012-01-31 18:49:59"],
		[1767, 1771.4, 1771.5, 1765.4, 40930011.6, 23137, "2012-02-01 10:00:00", "2012-02-01 10:09:59"],
		[1771.4, 1771.3, 1774.8, 1771, 21605794.6, 12188, "2012-02-01 10:10:00", "2012-02-01 10:19:59"],
		[1771.1, 1769.8, 1773, 1767.7, 22376041.8, 12641, "2012-02-01 10:20:00", "2012-02-01 10:29:59"],
		[1769.8, 1770, 1771, 1767, 16325476.4, 9229, "2012-02-01 10:30:00", "2012-02-01 10:39:59"],
		[1769.9, 1767.5, 1772.2, 1767, 35700014.9, 20188, "2012-02-01 10:40:00", "2012-02-01 10:49:59"],
		[1767.6, 1769, 1770, 1767.6, 7608307.2, 4301, "2012-02-01 10:50:00", "2012-02-01 10:59:59"],
		[1768.9, 1766.2, 1769, 1766, 23771454.3, 13452, "2012-02-01 11:00:00", "2012-02-01 11:09:59"],
		[1766.2, 1767.5, 1767.5, 1763.2, 35235094.6, 19960, "2012-02-01 11:10:00", "2012-02-01 11:19:59"],
		[1767.4, 1764, 1767.5, 1764, 6881248.8, 3897, "2012-02-01 11:20:00", "2012-02-01 11:29:59"],
		[1764.7, 1765.8, 1768.8, 1764.6, 20638298.9, 11683, "2012-02-01 11:30:00", "2012-02-01 11:39:59"],
		[1766, 1767.7, 1768.7, 1765.8, 8864402.2, 5015, "2012-02-01 11:40:00", "2012-02-01 11:49:59"],
		[1767.2, 1767.9, 1769, 1766.2, 7117849.4, 4027, "2012-02-01 11:50:00", "2012-02-01 11:59:59"],
		[1767.8, 1770.1, 1770.8, 1767.8, 16338675.8, 9232, "2012-02-01 12:00:00", "2012-02-01 12:09:59"],
		[1770.6, 1785, 1786.6, 1770.3, 352479216.9, 197931, "2012-02-01 12:10:00", "2012-02-01 12:19:59"],
		[1785, 1786, 1789.8, 1784.5, 204121566.9, 114204, "2012-02-01 12:20:00", "2012-02-01 12:29:59"],
		[1786.2, 1787.5, 1791.7, 1786.1, 204485638.2, 114261, "2012-02-01 12:30:00", "2012-02-01 12:39:59"],
		[1787.6, 1788.4, 1789.9, 1786, 55754025.4, 31193, "2012-02-01 12:40:00", "2012-02-01 12:49:59"],
		[1788.4, 1792.2, 1793.4, 1787.2, 110263175.2, 61570, "2012-02-01 12:50:00", "2012-02-01 12:59:59"],
		[1792.2, 1788, 1794.6, 1787.5, 155590458.4, 86803, "2012-02-01 13:00:00", "2012-02-01 13:09:59"],
		[1788, 1783.9, 1789.5, 1783.1, 211397454.4, 118319, "2012-02-01 13:10:00", "2012-02-01 13:19:59"],
		[1784.2, 1784, 1785.8, 1780, 82034966.9, 46016, "2012-02-01 13:20:00", "2012-02-01 13:29:59"],
		[1784.8, 1785.7, 1787.5, 1781.6, 86048965.4, 48206, "2012-02-01 13:30:00", "2012-02-01 13:39:59"],
		[1785.5, 1784.1, 1788, 1784.1, 44993479.1, 25193, "2012-02-01 13:40:00", "2012-02-01 13:49:59"],
		[1784.2, 1786.1, 1786.9, 1782.6, 94988396.6, 53216, "2012-02-01 13:50:00", "2012-02-01 13:59:59"],
		[1786.1, 1784, 1786.7, 1783.7, 92756175.1, 51968, "2012-02-01 14:00:00", "2012-02-01 14:09:59"],
		[1784.5, 1782.1, 1784.5, 1781, 24683324.5, 13849, "2012-02-01 14:10:00", "2012-02-01 14:19:59"],
		[1782.1, 1783.8, 1784.4, 1781.6, 6602847.3, 3703, "2012-02-01 14:20:00", "2012-02-01 14:29:59"],
		[1783.5, 1782.1, 1785.5, 1782, 24052689.7, 13488, "2012-02-01 14:30:00", "2012-02-01 14:39:59"],
		[1782.7, 1783.9, 1784.7, 1782, 31046130, 17412, "2012-02-01 14:40:00", "2012-02-01 14:49:59"],
		[1783.9, 1786.5, 1787.7, 1783.5, 35469710.5, 19858, "2012-02-01 14:50:00", "2012-02-01 14:59:59"],
		[1787.2, 1788.1, 1790.1, 1786.4, 79498684, 44443, "2012-02-01 15:00:00", "2012-02-01 15:09:59"],
		[1788.1, 1790.2, 1791, 1786, 85103052.1, 47562, "2012-02-01 15:10:00", "2012-02-01 15:19:59"],
		[1790.6, 1786.2, 1790.6, 1785.1, 35025273.7, 19592, "2012-02-01 15:20:00", "2012-02-01 15:29:59"],
		[1786.1, 1786, 1787.5, 1785.2, 9540370.5, 5342, "2012-02-01 15:30:00", "2012-02-01 15:39:59"],
		[1786.6, 1789.4, 1789.7, 1785.8, 19189305, 10731, "2012-02-01 15:40:00", "2012-02-01 15:49:59"],
		[1789.4, 1787, 1789.5, 1787, 11861779.8, 6634, "2012-02-01 15:50:00", "2012-02-01 15:59:59"],
		[1787.6, 1787.3, 1787.8, 1785.2, 29734556.2, 16640, "2012-02-01 16:00:00", "2012-02-01 16:09:59"],
		[1787.3, 1788.2, 1788.3, 1786.2, 16023551.7, 8965, "2012-02-01 16:10:00", "2012-02-01 16:19:59"],
		[1788.1, 1785.7, 1788.5, 1785, 78768732.3, 44077, "2012-02-01 16:20:00", "2012-02-01 16:29:59"],
		[1786.1, 1784, 1787.1, 1783.3, 71167184.6, 39868, "2012-02-01 16:30:00", "2012-02-01 16:39:59"],
		[1784, 1781.7, 1785.4, 1781.1, 108563566.5, 60893, "2012-02-01 16:40:00", "2012-02-01 16:49:59"],
		[1782.2, 1780.7, 1784, 1780.6, 54867605.1, 30787, "2012-02-01 16:50:00", "2012-02-01 16:59:59"],
		[1780.8, 1782.1, 1782.7, 1780.8, 4811554.3, 2700, "2012-02-01 17:00:00", "2012-02-01 17:09:59"],
		[1782.1, 1784, 1784.8, 1781.3, 30682718.4, 17205, "2012-02-01 17:10:00", "2012-02-01 17:19:59"],
		[1783.2, 1781.7, 1785, 1781.3, 21391759.8, 11998, "2012-02-01 17:20:00", "2012-02-01 17:29:59"],
		[1781.5, 1783.2, 1784, 1781.3, 30788536.4, 17271, "2012-02-01 17:30:00", "2012-02-01 17:39:59"],
		[1783.2, 1783, 1785.1, 1782.3, 47494966.4, 26624, "2012-02-01 17:40:00", "2012-02-01 17:49:59"],
		[1783, 1785.3, 1785.3, 1781, 53477364.1, 29996, "2012-02-01 17:50:00", "2012-02-01 17:59:59"],
		[1785.4, 1785.8, 1787.7, 1784.1, 31591484.7, 17689, "2012-02-01 18:00:00", "2012-02-01 18:09:59"],
		[1785.8, 1785, 1786, 1782.3, 28226367.3, 15816, "2012-02-01 18:10:00", "2012-02-01 18:19:59"],
		[1785, 1785.6, 1787, 1784.7, 34993610.4, 19594, "2012-02-01 18:20:00", "2012-02-01 18:29:59"],
		[1785.7, 1781.6, 1786.1, 1781.5, 121579954.9, 68156, "2012-02-01 18:30:00", "2012-02-01 18:39:59"],
		[1782.9, 1784, 1785.1, 1781.3, 62919765.1, 35288, "2012-02-01 18:40:00", "2012-02-01 18:49:59"],
		[1790, 1780.2, 1792.3, 1780.1, 125179921.1, 70160, "2012-02-02 10:00:00", "2012-02-02 10:09:59"],
		[1780.2, 1788.9, 1788.9, 1780.2, 52914896.8, 29658, "2012-02-02 10:10:00", "2012-02-02 10:19:59"],
		[1788.9, 1787, 1791, 1787, 145372874.1, 81221, "2012-02-02 10:20:00", "2012-02-02 10:29:59"],
		[1787, 1785.7, 1788, 1785.3, 17169518, 9611, "2012-02-02 10:30:00", "2012-02-02 10:39:59"],
		[1785.7, 1782, 1786.6, 1781.5, 31464803.7, 17639, "2012-02-02 10:40:00", "2012-02-02 10:49:59"],
		[1781.8, 1785.5, 1786.1, 1781.5, 27254701.3, 15284, "2012-02-02 10:50:00", "2012-02-02 10:59:59"],
		[1785.6, 1783.4, 1786.1, 1783.4, 42275835.1, 23682, "2012-02-02 11:00:00", "2012-02-02 11:09:59"],
		[1783.3, 1787, 1788.5, 1782.2, 109284742.9, 61238, "2012-02-02 11:10:00", "2012-02-02 11:19:59"],
		[1787, 1785.1, 1787.5, 1783.6, 53484409.8, 29946, "2012-02-02 11:20:00", "2012-02-02 11:29:59"],
		[1785.2, 1786.8, 1789.2, 1785.2, 15856298.6, 8871, "2012-02-02 11:30:00", "2012-02-02 11:39:59"],
		[1786, 1788.9, 1788.9, 1785, 6091643.8, 3409, "2012-02-02 11:40:00", "2012-02-02 11:49:59"],
		[1788.4, 1785.3, 1788.9, 1785.2, 7225568.9, 4045, "2012-02-02 11:50:00", "2012-02-02 11:59:59"],
		[1785.3, 1783.1, 1788, 1782.2, 48394295.1, 27120, "2012-02-02 12:00:00", "2012-02-02 12:09:59"],
		[1783, 1785.3, 1790, 1781, 246783468.5, 138324, "2012-02-02 12:10:00", "2012-02-02 12:19:59"],
		[1785, 1789, 1789.8, 1784.9, 67373694, 37694, "2012-02-02 12:20:00", "2012-02-02 12:29:59"],
		[1789.2, 1793, 1794.4, 1788.2, 121943279, 68069, "2012-02-02 12:30:00", "2012-02-02 12:39:59"],
		[1793, 1792.7, 1794.5, 1792, 85686146.2, 47771, "2012-02-02 12:40:00", "2012-02-02 12:49:59"],
		[1792.7, 1792.6, 1794.4, 1789.6, 129336629, 72158, "2012-02-02 12:50:00", "2012-02-02 12:59:59"],
		[1792.4, 1789, 1792.4, 1786.4, 140889943.7, 78691, "2012-02-02 13:00:00", "2012-02-02 13:09:59"],
		[1789.1, 1789, 1793.7, 1787.2, 91414427.2, 51053, "2012-02-02 13:10:00", "2012-02-02 13:19:59"],
		[1789, 1789, 1791.2, 1787, 53264804.3, 29780, "2012-02-02 13:20:00", "2012-02-02 13:29:59"],
		[1789.9, 1789.8, 1791.5, 1788.8, 10452777.8, 5841, "2012-02-02 13:30:00", "2012-02-02 13:39:59"],
		[1789.8, 1792.4, 1792.5, 1788.4, 37325801, 20846, "2012-02-02 13:40:00", "2012-02-02 13:49:59"],
		[1792.4, 1792.7, 1793, 1790.4, 25960891.1, 14482, "2012-02-02 13:50:00", "2012-02-02 13:59:59"],
		[1792.5, 1788, 1792.8, 1787, 36273565.7, 20264, "2012-02-02 14:00:00", "2012-02-02 14:09:59"],
		[1787.3, 1787.9, 1789.9, 1787, 31435288.9, 17585, "2012-02-02 14:10:00", "2012-02-02 14:19:59"],
		[1787.9, 1791, 1792, 1787, 30336655.4, 16958, "2012-02-02 14:20:00", "2012-02-02 14:29:59"],
		[1791, 1790.6, 1795.9, 1789.5, 119130860.3, 66436, "2012-02-02 14:30:00", "2012-02-02 14:39:59"],
		[1791, 1790.4, 1792.1, 1787.8, 39418971.6, 22024, "2012-02-02 14:40:00", "2012-02-02 14:49:59"],
		[1790.4, 1790, 1791.7, 1790, 33250679, 18569, "2012-02-02 14:50:00", "2012-02-02 14:59:59"],
		[1790, 1791.7, 1791.8, 1787.3, 46292240.7, 25862, "2012-02-02 15:00:00", "2012-02-02 15:09:59"],
		[1790.8, 1790.4, 1791.1, 1787.9, 55532039.7, 31034, "2012-02-02 15:10:00", "2012-02-02 15:19:59"],
		[1790.4, 1792.3, 1792.6, 1789.3, 40802386.5, 22782, "2012-02-02 15:20:00", "2012-02-02 15:29:59"],
		[1792.2, 1793.3, 1793.3, 1791, 19643132.7, 10958, "2012-02-02 15:30:00", "2012-02-02 15:39:59"],
		[1793.2, 1791.2, 1793.5, 1790, 42797057.4, 23886, "2012-02-02 15:40:00", "2012-02-02 15:49:59"],
		[1791.1, 1791, 1792.5, 1790, 34411923.7, 19212, "2012-02-02 15:50:00", "2012-02-02 15:59:59"],
		[1791, 1788.7, 1792.5, 1787, 95693133.9, 53484, "2012-02-02 16:00:00", "2012-02-02 16:09:59"],
		[1788.9, 1787.2, 1789.3, 1787, 40428980, 22618, "2012-02-02 16:10:00", "2012-02-02 16:19:59"],
		[1787.2, 1787.4, 1788.5, 1787, 59980666.1, 33556, "2012-02-02 16:20:00", "2012-02-02 16:29:59"],
		[1787.4, 1788.9, 1789, 1785.4, 125135185.1, 70021, "2012-02-02 16:30:00", "2012-02-02 16:39:59"],
		[1788.2, 1787.7, 1788.8, 1785, 19616677.6, 10979, "2012-02-02 16:40:00", "2012-02-02 16:49:59"],
		[1787.6, 1787.2, 1788, 1787, 28131503.7, 15741, "2012-02-02 16:50:00", "2012-02-02 16:59:59"],
		[1787.9, 1787.9, 1790, 1787, 42838063.9, 23954, "2012-02-02 17:00:00", "2012-02-02 17:09:59"],
		[1787.8, 1788.1, 1790, 1787, 40720799.5, 22774, "2012-02-02 17:10:00", "2012-02-02 17:19:59"],
		[1788.8, 1787.2, 1789.2, 1787.2, 20225803.3, 11314, "2012-02-02 17:20:00", "2012-02-02 17:29:59"],
		[1787.5, 1790.9, 1791.2, 1787, 61309802.5, 34282, "2012-02-02 17:30:00", "2012-02-02 17:39:59"],
		[1791, 1788.6, 1791.4, 1788.4, 9910019.3, 5536, "2012-02-02 17:40:00", "2012-02-02 17:49:59"],
		[1788.5, 1790.9, 1790.9, 1788, 51957534.1, 29029, "2012-02-02 17:50:00", "2012-02-02 17:59:59"],
		[1790.9, 1797, 1797.2, 1790.1, 108907306.3, 60677, "2012-02-02 18:00:00", "2012-02-02 18:09:59"],
		[1796.9, 1796.1, 1799, 1794.3, 96065347.6, 53438, "2012-02-02 18:10:00", "2012-02-02 18:19:59"],
		[1796.9, 1797.4, 1799, 1795.8, 42193448.6, 23474, "2012-02-02 18:20:00", "2012-02-02 18:29:59"],
		[1797.6, 1795.2, 1797.8, 1794.7, 86916919.9, 48404, "2012-02-02 18:30:00", "2012-02-02 18:39:59"],
		[1795.1, 1797.5, 1798, 1792.9, 74860136.7, 41695, "2012-02-02 18:40:00", "2012-02-02 18:49:59"],
		[1792.5, 1795, 1795, 1790.7, 31210064.9, 17405, "2012-02-03 10:00:00", "2012-02-03 10:09:59"],
		[1794.7, 1795.4, 1795.8, 1794.2, 6296290.1, 3507, "2012-02-03 10:10:00", "2012-02-03 10:19:59"],
		[1794.9, 1794.9, 1795.6, 1793.1, 13796130, 7688, "2012-02-03 10:20:00", "2012-02-03 10:29:59"],
		[1794.9, 1792.6, 1795, 1792.3, 13069723.4, 7287, "2012-02-03 10:30:00", "2012-02-03 10:39:59"],
		[1792.7, 1791.9, 1793.2, 1791.2, 5991456, 3343, "2012-02-03 10:40:00", "2012-02-03 10:49:59"],
		[1791.6, 1791, 1792.6, 1790.9, 15356803, 8574, "2012-02-03 10:50:00", "2012-02-03 10:59:59"],
		[1791, 1791, 1791.8, 1790.1, 18030657.9, 10068, "2012-02-03 11:00:00", "2012-02-03 11:09:59"],
		[1790.5, 1789.4, 1791.3, 1788, 11469837.8, 6409, "2012-02-03 11:10:00", "2012-02-03 11:19:59"],
		[1789.3, 1791.7, 1791.9, 1788.9, 7392690.1, 4129, "2012-02-03 11:20:00", "2012-02-03 11:29:59"],
		[1791.5, 1792, 1793, 1790, 10731980.5, 5989, "2012-02-03 11:30:00", "2012-02-03 11:39:59"],
		[1792, 1792.1, 1793, 1792, 4409569, 2460, "2012-02-03 11:40:00", "2012-02-03 11:49:59"],
		[1792.8, 1794.9, 1795, 1792.8, 17471463.6, 9739, "2012-02-03 11:50:00", "2012-02-03 11:59:59"],
		[1794.9, 1792.4, 1795, 1791.6, 6220805.1, 3469, "2012-02-03 12:00:00", "2012-02-03 12:09:59"],
		[1791.8, 1795.4, 1796.9, 1790.6, 25965702.3, 14469, "2012-02-03 12:10:00", "2012-02-03 12:19:59"],
		[1795.8, 1793.7, 1797, 1792.8, 24778083.7, 13806, "2012-02-03 12:20:00", "2012-02-03 12:29:59"],
		[1793, 1792, 1793.3, 1790.1, 24493812.4, 13670, "2012-02-03 12:30:00", "2012-02-03 12:39:59"],
		[1792.1, 1792.5, 1794, 1790.9, 9653496.4, 5386, "2012-02-03 12:40:00", "2012-02-03 12:49:59"],
		[1792.4, 1792.1, 1793.5, 1791, 34075037.5, 19012, "2012-02-03 12:50:00", "2012-02-03 12:59:59"],
		[1792.1, 1793.7, 1794.8, 1791, 41527724.2, 23162, "2012-02-03 13:00:00", "2012-02-03 13:09:59"],
		[1794.6, 1790.3, 1795, 1790, 51550051.8, 28771, "2012-02-03 13:10:00", "2012-02-03 13:19:59"],
		[1790.2, 1789.4, 1790.8, 1787, 47756347.7, 26691, "2012-02-03 13:20:00", "2012-02-03 13:29:59"],
		[1789.8, 1794.2, 1794.9, 1789.6, 30508621.6, 17017, "2012-02-03 13:30:00", "2012-02-03 13:39:59"],
		[1794.2, 1795.8, 1797.5, 1793.9, 33992949.4, 18928, "2012-02-03 13:40:00", "2012-02-03 13:49:59"],
		[1795.8, 1798.3, 1798.5, 1795.2, 34463777, 19172, "2012-02-03 13:50:00", "2012-02-03 13:59:59"],
		[1798.3, 1795.7, 1798.3, 1795.7, 25954450.3, 14441, "2012-02-03 14:00:00", "2012-02-03 14:09:59"],
		[1796, 1796, 1797.1, 1795.7, 6157079.3, 3427, "2012-02-03 14:10:00", "2012-02-03 14:19:59"],
		[1795.7, 1795, 1796.6, 1794, 9421480.4, 5249, "2012-02-03 14:20:00", "2012-02-03 14:29:59"],
		[1795, 1796, 1797.9, 1795, 17486659, 9732, "2012-02-03 14:30:00", "2012-02-03 14:39:59"],
		[1796.4, 1794, 1796.5, 1792.2, 15316250.9, 8540, "2012-02-03 14:40:00", "2012-02-03 14:49:59"],
		[1793.2, 1794.4, 1794.6, 1793.2, 7142498.7, 3983, "2012-02-03 14:50:00", "2012-02-03 14:59:59"],
		[1794.2, 1794.4, 1794.4, 1792, 7463556.9, 4162, "2012-02-03 15:00:00", "2012-02-03 15:09:59"],
		[1795, 1793.9, 1795.5, 1793.8, 1724623, 961, "2012-02-03 15:10:00", "2012-02-03 15:19:59"],
		[1794.6, 1794.7, 1796.8, 1793.5, 12568099.9, 7002, "2012-02-03 15:20:00", "2012-02-03 15:29:59"],
		[1794.7, 1793.5, 1795.3, 1792, 8255982, 4605, "2012-02-03 15:30:00", "2012-02-03 15:39:59"],
		[1793.6, 1794.3, 1796.8, 1793, 13308482.5, 7414, "2012-02-03 15:40:00", "2012-02-03 15:49:59"],
		[1795, 1792.8, 1795.5, 1791.3, 27229822.9, 15185, "2012-02-03 15:50:00", "2012-02-03 15:59:59"],
		[1792.4, 1794.8, 1795.4, 1792.3, 12012225.8, 6697, "2012-02-03 16:00:00", "2012-02-03 16:09:59"],
		[1794.5, 1794.9, 1796, 1793.8, 10155391.5, 5658, "2012-02-03 16:10:00", "2012-02-03 16:19:59"],
		[1794.2, 1794, 1794.9, 1793.2, 3094489, 1725, "2012-02-03 16:20:00", "2012-02-03 16:29:59"],
		[1794, 1793.4, 1794.1, 1792.5, 9574984.9, 5340, "2012-02-03 16:30:00", "2012-02-03 16:39:59"],
		[1793, 1793, 1793.8, 1792.4, 34205348.4, 19079, "2012-02-03 16:40:00", "2012-02-03 16:49:59"],
		[1793, 1792.6, 1793.2, 1790.7, 16002788.1, 8932, "2012-02-03 16:50:00", "2012-02-03 16:59:59"],
		[1793, 1795, 1795, 1793, 11260995.3, 6276, "2012-02-03 17:00:00", "2012-02-03 17:09:59"],
		[1794.9, 1795.8, 1796, 1794.2, 15025690.8, 8370, "2012-02-03 17:10:00", "2012-02-03 17:19:59"],
		[1795.9, 1795.3, 1795.9, 1795, 13029479.7, 7258, "2012-02-03 17:20:00", "2012-02-03 17:29:59"],
		[1795.3, 1802.6, 1805, 1795, 393803797.2, 218788, "2012-02-03 17:30:00", "2012-02-03 17:39:59"],
		[1802.6, 1801.5, 1804.4, 1800.9, 146178044.7, 81115, "2012-02-03 17:40:00", "2012-02-03 17:49:59"],
		[1801.9, 1801.8, 1803.8, 1801.2, 42507334, 23582, "2012-02-03 17:50:00", "2012-02-03 17:59:59"],
		[1802.3, 1807, 1807, 1802, 180395602.2, 99977, "2012-02-03 18:00:00", "2012-02-03 18:09:59"],
		[1807, 1809.4, 1809.5, 1806.2, 115100705.6, 63662, "2012-02-03 18:10:00", "2012-02-03 18:19:59"],
		[1809.3, 1814.5, 1814.5, 1808.4, 260785883.6, 143955, "2012-02-03 18:20:00", "2012-02-03 18:29:59"],
		[1814.5, 1814.8, 1815, 1812.6, 185684545.7, 102333, "2012-02-03 18:30:00", "2012-02-03 18:39:59"],
		[1814.9, 1814.9, 1815.2, 1810, 162734082.6, 89786, "2012-02-03 18:40:00", "2012-02-03 18:49:59"],
		[1812.9, 1817.9, 1819.4, 1812.5, 124377326.3, 68490, "2012-02-06 10:00:00", "2012-02-06 10:09:59"],
		[1817.2, 1816.3, 1819.2, 1812.5, 71499832.8, 39372, "2012-02-06 10:10:00", "2012-02-06 10:19:59"],
		[1816.3, 1815, 1816.7, 1813.9, 64786596.1, 35684, "2012-02-06 10:20:00", "2012-02-06 10:29:59"],
		[1815.1, 1813.7, 1816.5, 1813.2, 26289720.2, 14481, "2012-02-06 10:30:00", "2012-02-06 10:39:59"],
		[1813.7, 1812.3, 1814.4, 1810, 58246376.2, 32149, "2012-02-06 10:40:00", "2012-02-06 10:49:59"],
		[1812.3, 1810.5, 1812.4, 1810.5, 25795075.3, 14237, "2012-02-06 10:50:00", "2012-02-06 10:59:59"],
		[1810.5, 1811.9, 1812, 1810, 10672435.2, 5894, "2012-02-06 11:00:00", "2012-02-06 11:09:16"],
		[1811.9, 1811.5, 1814.9, 1810.4, 17032303.4, 9394, "2012-02-06 11:10:00", "2012-02-06 11:19:59"],
		[1811.1, 1810.5, 1811.1, 1809.8, 22520119.7, 12438, "2012-02-06 11:20:00", "2012-02-06 11:29:59"],
		[1810.5, 1812, 1814.3, 1810.1, 25189737.5, 13901, "2012-02-06 11:30:00", "2012-02-06 11:39:59"],
		[1812.1, 1810.1, 1813.5, 1810, 18684414.6, 10318, "2012-02-06 11:40:00", "2012-02-06 11:49:59"],
		[1810.1, 1809, 1810.4, 1808, 33141216.3, 18315, "2012-02-06 11:50:00", "2012-02-06 11:59:59"],
		[1809, 1807.4, 1810, 1805.5, 49335447.7, 27300, "2012-02-06 12:00:00", "2012-02-06 12:09:59"],
		[1806.1, 1810.3, 1812, 1804.7, 97791478.6, 54068, "2012-02-06 12:10:00", "2012-02-06 12:19:59"],
		[1810.4, 1809, 1811.3, 1807.7, 30920425, 17089, "2012-02-06 12:20:00", "2012-02-06 12:29:59"],
		[1809, 1807.1, 1809.6, 1805.1, 53025709.5, 29343, "2012-02-06 12:30:00", "2012-02-06 12:39:59"],
		[1806, 1809.3, 1809.4, 1805.2, 31905653.3, 17659, "2012-02-06 12:40:00", "2012-02-06 12:49:59"],
		[1809.3, 1807, 1809.9, 1806.7, 47327689.5, 26179, "2012-02-06 12:50:00", "2012-02-06 12:59:59"],
		[1807, 1808.3, 1810, 1806.4, 45007340.5, 24902, "2012-02-06 13:00:00", "2012-02-06 13:09:59"],
		[1808.4, 1808.1, 1810.2, 1807.4, 11888126.4, 6572, "2012-02-06 13:10:00", "2012-02-06 13:19:59"],
		[1808.7, 1810, 1810, 1808, 10516149.1, 5812, "2012-02-06 13:20:00", "2012-02-06 13:29:59"],
		[1809.8, 1812.8, 1813.5, 1809, 51514650.7, 28441, "2012-02-06 13:30:00", "2012-02-06 13:39:59"],
		[1812.4, 1809.6, 1815, 1809.3, 180659773.6, 99721, "2012-02-06 13:40:00", "2012-02-06 13:49:59"],
		[1809.6, 1809, 1811.5, 1808.1, 35590048.3, 19668, "2012-02-06 13:50:00", "2012-02-06 13:59:59"],
		[1809, 1812, 1812.2, 1809, 26994230.9, 14914, "2012-02-06 14:00:00", "2012-02-06 14:09:59"],
		[1812, 1810.6, 1814.4, 1810.4, 19199197.8, 10591, "2012-02-06 14:10:00", "2012-02-06 14:19:59"],
		[1810.6, 1811, 1814.3, 1810.1, 26755118.8, 14766, "2012-02-06 14:20:00", "2012-02-06 14:29:59"],
		[1811.5, 1812.4, 1812.7, 1810, 21021917.4, 11607, "2012-02-06 14:30:00", "2012-02-06 14:39:59"],
		[1811.8, 1810.4, 1812.9, 1810, 14390037.5, 7944, "2012-02-06 14:40:00", "2012-02-06 14:49:59"],
		[1810.1, 1809.2, 1811, 1808, 16364346.5, 9046, "2012-02-06 14:50:00", "2012-02-06 14:59:59"],
		[1809.2, 1809, 1809.5, 1808, 8184048.2, 4525, "2012-02-06 15:00:00", "2012-02-06 15:09:59"],
		[1808.9, 1809.5, 1810.4, 1808.3, 21881805.5, 12092, "2012-02-06 15:10:00", "2012-02-06 15:19:59"],
		[1809.2, 1809, 1810.8, 1807, 31603572.8, 17470, "2012-02-06 15:20:00", "2012-02-06 15:29:59"],
		[1809.8, 1808.3, 1810, 1806.5, 21325871.2, 11793, "2012-02-06 15:30:00", "2012-02-06 15:39:59"],
		[1807.2, 1803.1, 1807.3, 1802.6, 128698466, 71319, "2012-02-06 15:40:00", "2012-02-06 15:49:59"],
		[1803.2, 1804.7, 1806.9, 1802.6, 134417748.4, 74475, "2012-02-06 15:50:00", "2012-02-06 15:59:59"],
		[1805.1, 1805.5, 1807.8, 1805, 25571702.1, 14155, "2012-02-06 16:00:00", "2012-02-06 16:09:59"],
		[1806.5, 1806, 1807.2, 1803.3, 34208275, 18951, "2012-02-06 16:10:00", "2012-02-06 16:19:59"],
		[1806, 1811.3, 1811.3, 1806, 38058600.6, 21033, "2012-02-06 16:20:00", "2012-02-06 16:29:59"],
		[1811.4, 1811.7, 1813, 1809.9, 14245953.5, 7865, "2012-02-06 16:30:00", "2012-02-06 16:39:59"],
		[1810.7, 1810.9, 1812.7, 1809.6, 19645501.2, 10844, "2012-02-06 16:40:00", "2012-02-06 16:49:59"],
		[1810.9, 1810.4, 1812.4, 1810, 14866166.7, 8208, "2012-02-06 16:50:00", "2012-02-06 16:59:59"],
		[1810.3, 1811.2, 1811.5, 1807.1, 12849447.9, 7101, "2012-02-06 17:00:00", "2012-02-06 17:09:59"],
		[1810.1, 1810.5, 1811.4, 1807.3, 11097419.6, 6134, "2012-02-06 17:10:00", "2012-02-06 17:19:59"],
		[1809.6, 1807.3, 1810.2, 1806.4, 17552435.2, 9707, "2012-02-06 17:20:00", "2012-02-06 17:29:59"],
		[1806.4, 1808.3, 1809.8, 1806, 23449328.6, 12973, "2012-02-06 17:30:00", "2012-02-06 17:39:59"],
		[1808, 1809, 1810.3, 1806.9, 4981121.8, 2754, "2012-02-06 17:40:00", "2012-02-06 17:49:59"],
		[1809.2, 1806, 1810, 1806, 12851067, 7108, "2012-02-06 17:50:00", "2012-02-06 17:59:59"],
		[1806.3, 1804.9, 1806.7, 1802.5, 45466007.8, 25201, "2012-02-06 18:00:00", "2012-02-06 18:09:59"],
		[1804.9, 1806.9, 1806.9, 1803.7, 21628844.6, 11980, "2012-02-06 18:10:00", "2012-02-06 18:19:59"],
		[1806.9, 1804.3, 1807, 1803.5, 10079455.9, 5584, "2012-02-06 18:20:00", "2012-02-06 18:29:59"],
		[1805.1, 1808, 1808, 1803.5, 39380397.2, 21802, "2012-02-06 18:30:00", "2012-02-06 18:39:59"],
		[1807.1, 1812, 1812.8, 1806.2, 121349903.8, 67055, "2012-02-06 18:40:00", "2012-02-06 18:49:59"],
		[1810, 1809.5, 1813.8, 1805.3, 28958938, 16005, "2012-02-07 10:00:00", "2012-02-07 10:09:59"],
		[1809.8, 1805.4, 1810, 1804.1, 46125044, 25530, "2012-02-07 10:10:00", "2012-02-07 10:19:59"],
		[1805.3, 1808.5, 1808.5, 1805.2, 9579508.5, 5299, "2012-02-07 10:20:00", "2012-02-07 10:29:59"],
		[1808.5, 1809, 1810, 1806.9, 21541088.4, 11907, "2012-02-07 10:30:00", "2012-02-07 10:39:59"],
		[1809, 1808.2, 1809.4, 1806.8, 11234012.1, 6214, "2012-02-07 10:40:00", "2012-02-07 10:49:59"],
		[1807.2, 1809, 1810, 1807.2, 7764262.8, 4292, "2012-02-07 10:50:00", "2012-02-07 10:59:59"],
		[1808.4, 1807.6, 1808.8, 1805.7, 38554474.4, 21337, "2012-02-07 11:00:00", "2012-02-07 11:09:59"],
		[1807.7, 1809.6, 1810, 1807, 25546009.3, 14125, "2012-02-07 11:10:00", "2012-02-07 11:19:59"],
		[1809.5, 1810.6, 1810.7, 1805.4, 45035788.3, 24895, "2012-02-07 11:20:00", "2012-02-07 11:29:59"],
		[1810.6, 1812.4, 1813.9, 1809, 56202588.9, 31030, "2012-02-07 11:30:00", "2012-02-07 11:39:59"],
		[1812, 1810.9, 1813.3, 1809.2, 10497855.7, 5798, "2012-02-07 11:40:00", "2012-02-07 11:49:59"],
		[1810.8, 1813.1, 1813.4, 1810.1, 32519576.4, 17946, "2012-02-07 11:50:00", "2012-02-07 11:59:59"],
		[1813.1, 1813.5, 1814.5, 1812, 28144130.7, 15522, "2012-02-07 12:00:00", "2012-02-07 12:09:59"],
		[1813.5, 1809.6, 1816, 1809.4, 63430792.2, 34984, "2012-02-07 12:10:00", "2012-02-07 12:19:59"],
		[1810.2, 1811.1, 1812.9, 1808.1, 57044137.5, 31502, "2012-02-07 12:20:00", "2012-02-07 12:29:59"],
		[1811.2, 1809, 1812.8, 1807, 26524313.9, 14661, "2012-02-07 12:30:00", "2012-02-07 12:39:59"],
		[1808.2, 1810.3, 1810.7, 1807.4, 17288105, 9558, "2012-02-07 12:40:00", "2012-02-07 12:49:59"],
		[1810, 1808, 1810.8, 1807.5, 6361851.1, 3517, "2012-02-07 12:50:00", "2012-02-07 12:59:59"],
		[1808, 1805.8, 1808, 1805.2, 33363988.2, 18469, "2012-02-07 13:00:00", "2012-02-07 13:09:59"],
		[1805.4, 1805.8, 1808.9, 1805, 25887858.7, 14330, "2012-02-07 13:10:00", "2012-02-07 13:19:59"],
		[1805.9, 1807.6, 1808.8, 1805.7, 22233467.2, 12302, "2012-02-07 13:20:00", "2012-02-07 13:29:59"],
		[1807, 1807, 1807.8, 1805.5, 14367575, 7953, "2012-02-07 13:30:00", "2012-02-07 13:39:16"],
		[1807.1, 1809.2, 1810, 1807, 70938915.2, 39222, "2012-02-07 13:40:00", "2012-02-07 13:49:59"],
		[1809.2, 1807.5, 1810, 1807.3, 29859267.2, 16511, "2012-02-07 13:50:00", "2012-02-07 13:59:59"],
		[1807.5, 1806, 1807.5, 1805, 36707815.3, 20321, "2012-02-07 14:00:00", "2012-02-07 14:09:59"],
		[1806, 1804.3, 1807.1, 1803.6, 23355072.1, 12940, "2012-02-07 14:10:00", "2012-02-07 14:19:59"],
		[1804.3, 1802.8, 1805.5, 1801.3, 40241080.2, 22319, "2012-02-07 14:20:00", "2012-02-07 14:29:59"],
		[1803, 1802.7, 1805.1, 1802.2, 12661136.7, 7019, "2012-02-07 14:30:00", "2012-02-07 14:39:59"],
		[1802.5, 1803, 1803.8, 1802, 11635957.7, 6455, "2012-02-07 14:40:00", "2012-02-07 14:49:59"],
		[1803, 1801.1, 1803, 1800.5, 102518721, 56912, "2012-02-07 14:50:00", "2012-02-07 14:59:59"],
		[1801, 1795.5, 1801, 1795.5, 137173988.7, 76336, "2012-02-07 15:00:00", "2012-02-07 15:09:59"],
		[1795.5, 1792.7, 1797, 1791.5, 127206615.5, 70904, "2012-02-07 15:10:00", "2012-02-07 15:19:59"],
		[1792.5, 1794.9, 1795, 1791.6, 41041446.3, 22884, "2012-02-07 15:20:00", "2012-02-07 15:29:59"],
		[1794.8, 1795.3, 1795.7, 1792.6, 35297128.4, 19673, "2012-02-07 15:30:00", "2012-02-07 15:39:59"],
		[1795.3, 1796.2, 1796.2, 1793.2, 30250427.5, 16857, "2012-02-07 15:40:00", "2012-02-07 15:49:59"],
		[1796.2, 1793.6, 1797.4, 1790.5, 93706439, 52249, "2012-02-07 15:50:00", "2012-02-07 15:59:59"],
		[1792.9, 1794.8, 1795.7, 1792, 83056087.2, 46312, "2012-02-07 16:00:00", "2012-02-07 16:09:59"],
		[1795, 1796.2, 1796.3, 1794, 25151502.7, 14009, "2012-02-07 16:10:00", "2012-02-07 16:19:59"],
		[1796, 1796.8, 1797, 1794.2, 6649309.3, 3702, "2012-02-07 16:20:00", "2012-02-07 16:29:59"],
		[1796.5, 1798, 1799.4, 1795.2, 21236430.4, 11816, "2012-02-07 16:30:00", "2012-02-07 16:39:59"],
		[1798.6, 1798.4, 1800, 1797, 29609759.7, 16465, "2012-02-07 16:40:00", "2012-02-07 16:49:59"],
		[1799.3, 1798, 1799.3, 1797.5, 2823091.7, 1570, "2012-02-07 16:50:00", "2012-02-07 16:59:59"],
		[1797.5, 1799.4, 1800.9, 1797, 32169370.6, 17888, "2012-02-07 17:00:00", "2012-02-07 17:09:59"],
		[1799, 1802.2, 1802.5, 1799, 21978685.1, 12202, "2012-02-07 17:10:00", "2012-02-07 17:19:59"],
		[1801.7, 1799, 1801.7, 1799, 24501872.7, 13604, "2012-02-07 17:20:00", "2012-02-07 17:29:59"],
		[1799.5, 1801, 1803.4, 1798.2, 57172871.1, 31743, "2012-02-07 17:30:00", "2012-02-07 17:39:59"],
		[1800.2, 1797, 1801.7, 1797, 16963800, 9431, "2012-02-07 17:40:00", "2012-02-07 17:49:59"],
		[1797, 1797.6, 1798.4, 1796.1, 6925729.5, 3853, "2012-02-07 17:50:00", "2012-02-07 17:59:59"],
		[1797.5, 1796, 1797.9, 1795, 27041305.6, 15059, "2012-02-07 18:00:00", "2012-02-07 18:09:59"],
		[1795.5, 1796, 1796.3, 1794.5, 18508128.4, 10309, "2012-02-07 18:10:00", "2012-02-07 18:19:59"],
		[1796, 1795.9, 1796.5, 1795, 32878004.6, 18307, "2012-02-07 18:20:00", "2012-02-07 18:29:59"],
		[1796.5, 1793, 1796.8, 1793, 50294388.6, 28030, "2012-02-07 18:30:00", "2012-02-07 18:39:59"],
		[1793, 1793.5, 1796.4, 1792, 32088266.8, 17889, "2012-02-07 18:40:00", "2012-02-07 18:49:59"],
		[1801, 1807, 1809.9, 1801, 69005761.2, 38182, "2012-02-08 10:00:00", "2012-02-08 10:09:59"],
		[1807, 1808, 1809.9, 1806.4, 55844648.8, 30883, "2012-02-08 10:10:00", "2012-02-08 10:19:59"],
		[1807.8, 1807, 1809, 1806, 26729326.9, 14785, "2012-02-08 10:20:00", "2012-02-08 10:29:59"],
		[1807, 1807.7, 1807.9, 1805.1, 28247100, 15636, "2012-02-08 10:30:00", "2012-02-08 10:39:59"],
		[1807.6, 1807, 1807.8, 1806.1, 13370841.1, 7401, "2012-02-08 10:40:00", "2012-02-08 10:49:59"],
		[1806.9, 1809.7, 1809.7, 1805.4, 15908277.7, 8799, "2012-02-08 10:50:00", "2012-02-08 10:59:59"],
		[1809.7, 1810.1, 1811, 1809.1, 50313854.9, 27799, "2012-02-08 11:00:00", "2012-02-08 11:09:59"],
		[1810.3, 1809, 1810.4, 1807.3, 30462827.8, 16838, "2012-02-08 11:10:00", "2012-02-08 11:19:59"],
		[1809, 1807.3, 1809, 1807.2, 5658105.5, 3130, "2012-02-08 11:20:00", "2012-02-08 11:29:59"],
		[1807.3, 1807.7, 1810.1, 1807.3, 42266604, 23367, "2012-02-08 11:30:00", "2012-02-08 11:39:59"],
		[1808, 1812.8, 1813.9, 1807.3, 94078547.3, 51945, "2012-02-08 11:40:00", "2012-02-08 11:49:59"],
		[1813.8, 1812.4, 1814.4, 1811.3, 48411041.8, 26697, "2012-02-08 11:50:00", "2012-02-08 11:59:59"],
		[1812.2, 1814.8, 1815.6, 1811.9, 133323040, 73483, "2012-02-08 12:00:00", "2012-02-08 12:09:59"],
		[1814.7, 1821, 1821.5, 1812.5, 351519135.3, 193435, "2012-02-08 12:10:00", "2012-02-08 12:19:59"],
		[1821, 1811.7, 1821.5, 1810.2, 247331930.6, 136408, "2012-02-08 12:20:00", "2012-02-08 12:29:59"],
		[1811.5, 1808.2, 1811.7, 1805.9, 80721662.1, 44639, "2012-02-08 12:30:00", "2012-02-08 12:39:59"],
		[1808, 1810.5, 1812.2, 1807.7, 38404017.7, 21215, "2012-02-08 12:40:00", "2012-02-08 12:49:59"],
		[1810.5, 1812.9, 1813, 1810, 22830112.1, 12604, "2012-02-08 12:50:00", "2012-02-08 12:59:59"],
		[1812.9, 1817.1, 1817.9, 1812.2, 42568260.5, 23455, "2012-02-08 13:00:00", "2012-02-08 13:09:59"],
		[1817.1, 1813.3, 1817.4, 1813.3, 38571814.8, 21235, "2012-02-08 13:10:00", "2012-02-08 13:19:59"],
		[1813.2, 1815.4, 1817.3, 1813.2, 19706260.5, 10856, "2012-02-08 13:20:00", "2012-02-08 13:29:59"],
		[1815.1, 1816.3, 1816.4, 1813.7, 35516117, 19565, "2012-02-08 13:30:00", "2012-02-08 13:39:59"],
		[1816.4, 1816.9, 1818, 1815, 128839268.9, 70944, "2012-02-08 13:40:00", "2012-02-08 13:49:59"],
		[1817.6, 1818, 1819, 1816.1, 81918680.5, 45063, "2012-02-08 13:50:00", "2012-02-08 13:59:59"],
		[1818, 1821, 1821, 1817.1, 118584992.9, 65172, "2012-02-08 14:00:00", "2012-02-08 14:09:59"],
		[1821, 1818.4, 1821, 1817.4, 49802634.6, 27370, "2012-02-08 14:10:00", "2012-02-08 14:19:59"],
		[1818.4, 1820, 1820.8, 1816.2, 83920632, 46126, "2012-02-08 14:20:00", "2012-02-08 14:29:59"],
		[1820.5, 1817.7, 1821, 1816.7, 88203411.2, 48468, "2012-02-08 14:30:00", "2012-02-08 14:39:59"],
		[1818.6, 1818, 1818.7, 1814, 80260240, 44186, "2012-02-08 14:40:00", "2012-02-08 14:49:59"],
		[1818, 1814, 1818.1, 1813.3, 159607278.6, 87910, "2012-02-08 14:50:00", "2012-02-08 14:59:59"],
		[1814, 1815, 1816.9, 1810.4, 223112395.5, 123062, "2012-02-08 15:00:00", "2012-02-08 15:09:59"],
		[1815, 1814, 1817.8, 1813.5, 251886757.1, 138774, "2012-02-08 15:10:00", "2012-02-08 15:19:59"],
		[1814.9, 1817, 1817.9, 1814.2, 55069214, 30320, "2012-02-08 15:20:00", "2012-02-08 15:29:59"],
		[1816.9, 1821, 1821, 1816.3, 99802720.9, 54831, "2012-02-08 15:30:00", "2012-02-08 15:39:59"],
		[1820.9, 1818.2, 1821.3, 1817.4, 73760147.6, 40531, "2012-02-08 15:40:00", "2012-02-08 15:49:59"],
		[1818.5, 1819, 1820, 1817.8, 38520425.2, 21174, "2012-02-08 15:50:00", "2012-02-08 15:59:59"],
		[1819.6, 1817.9, 1819.8, 1816.8, 58715206.5, 32293, "2012-02-08 16:00:00", "2012-02-08 16:09:59"],
		[1817.8, 1815.9, 1817.8, 1813.1, 174172943.5, 95978, "2012-02-08 16:10:00", "2012-02-08 16:19:59"],
		[1815.9, 1819.9, 1820.1, 1815.9, 58365005.6, 32084, "2012-02-08 16:20:00", "2012-02-08 16:29:59"],
		[1820, 1821.3, 1823.5, 1819.9, 69439504.2, 38114, "2012-02-08 16:30:00", "2012-02-08 16:39:59"],
		[1820.6, 1821, 1821.7, 1819, 31528493.8, 17321, "2012-02-08 16:40:00", "2012-02-08 16:49:59"],
		[1821, 1821.4, 1822.4, 1820.2, 8795082.1, 4829, "2012-02-08 16:50:00", "2012-02-08 16:59:59"],
		[1821.7, 1820.2, 1823.5, 1820, 75431017.9, 41409, "2012-02-08 17:00:00", "2012-02-08 17:09:59"],
		[1820.2, 1818, 1820.4, 1816.1, 68805741.2, 37843, "2012-02-08 17:10:00", "2012-02-08 17:19:59"],
		[1818, 1819.8, 1819.9, 1816.5, 21357548.4, 11743, "2012-02-08 17:20:00", "2012-02-08 17:29:59"],
		[1819.8, 1819, 1819.9, 1817.1, 20418506.2, 11225, "2012-02-08 17:30:00", "2012-02-08 17:39:59"],
		[1818.2, 1817.6, 1819, 1816.6, 32734641.5, 18006, "2012-02-08 17:40:00", "2012-02-08 17:49:59"],
		[1817.6, 1813.1, 1818, 1813.1, 71897608.8, 39592, "2012-02-08 17:50:00", "2012-02-08 17:59:59"],
		[1813.8, 1812, 1814.8, 1810.7, 139650642.4, 77060, "2012-02-08 18:00:00", "2012-02-08 18:09:59"],
		[1811.2, 1813.9, 1814.4, 1811.1, 48056807.1, 26508, "2012-02-08 18:10:00", "2012-02-08 18:19:59"],
		[1814.3, 1815, 1817.5, 1813.2, 55841112.9, 30763, "2012-02-08 18:20:00", "2012-02-08 18:29:59"],
		[1815.2, 1815.6, 1818.6, 1814, 57802134.7, 31819, "2012-02-08 18:30:00", "2012-02-08 18:39:59"],
		[1815.6, 1817.1, 1820, 1815.2, 35971821.1, 19784, "2012-02-08 18:40:00", "2012-02-08 18:49:59"],
		[1818, 1822, 1822, 1815.2, 40366737.7, 22193, "2012-02-09 10:00:00", "2012-02-09 10:09:59"],
		[1822.1, 1822, 1823, 1819.2, 32713249.2, 17968, "2012-02-09 10:10:00", "2012-02-09 10:19:59"],
		[1821.2, 1821.1, 1821.7, 1820.1, 15109398.3, 8297, "2012-02-09 10:20:00", "2012-02-09 10:29:59"],
		[1821.1, 1821.1, 1822.3, 1821, 7840969.3, 4305, "2012-02-09 10:30:00", "2012-02-09 10:39:59"],
		[1821, 1820.6, 1823.5, 1819.5, 27186413, 14927, "2012-02-09 10:40:00", "2012-02-09 10:49:59"],
		[1820.8, 1821.7, 1823, 1820.2, 11144186.2, 6118, "2012-02-09 10:50:00", "2012-02-09 10:59:59"],
		[1821.6, 1828.4, 1828.4, 1821.5, 143507966.4, 78602, "2012-02-09 11:00:00", "2012-02-09 11:09:59"],
		[1827.5, 1827, 1828.4, 1825.8, 68412915.2, 37450, "2012-02-09 11:10:00", "2012-02-09 11:19:59"],
		[1827, 1827.1, 1828, 1827, 41091521.2, 22490, "2012-02-09 11:20:00", "2012-02-09 11:29:59"],
		[1827, 1824, 1828.4, 1823, 180922486, 99057, "2012-02-09 11:30:00", "2012-02-09 11:39:59"],
		[1823.7, 1822.5, 1826.3, 1821.7, 173828765.7, 95349, "2012-02-09 11:40:00", "2012-02-09 11:49:59"],
		[1822.4, 1821.9, 1823.5, 1820.1, 11734855.2, 6443, "2012-02-09 11:50:00", "2012-02-09 11:59:59"],
		[1821.1, 1820.5, 1823.4, 1820.1, 8735784.4, 4795, "2012-02-09 12:00:00", "2012-02-09 12:09:59"],
		[1820.5, 1818.4, 1822.1, 1817.3, 71664183.3, 39386, "2012-02-09 12:10:00", "2012-02-09 12:19:59"],
		[1817.4, 1821.2, 1821.6, 1817, 40469920.8, 22241, "2012-02-09 12:20:00", "2012-02-09 12:29:59"],
		[1821, 1826.7, 1828.5, 1821, 93351959.6, 51126, "2012-02-09 12:30:00", "2012-02-09 12:39:59"],
		[1825.9, 1828.8, 1829.9, 1825.6, 62018463.8, 33912, "2012-02-09 12:40:00", "2012-02-09 12:49:59"],
		[1828.6, 1828.1, 1829.4, 1827.4, 21095687.8, 11536, "2012-02-09 12:50:00", "2012-02-09 12:59:59"],
		[1828.6, 1828.2, 1829.7, 1828, 20673694.8, 11305, "2012-02-09 13:00:00", "2012-02-09 13:09:59"],
		[1828.1, 1826, 1829, 1825.7, 63303068.6, 34635, "2012-02-09 13:10:00", "2012-02-09 13:19:59"],
		[1825.6, 1828.8, 1828.8, 1825.5, 33765844.2, 18489, "2012-02-09 13:20:00", "2012-02-09 13:29:59"],
		[1828.7, 1828.7, 1830, 1826.7, 76009181.2, 41551, "2012-02-09 13:30:00", "2012-02-09 13:39:59"],
		[1828.7, 1828.5, 1830, 1827.7, 43017097.8, 23516, "2012-02-09 13:40:00", "2012-02-09 13:49:59"],
		[1829.3, 1827.5, 1829.5, 1825.6, 35594818.3, 19479, "2012-02-09 13:50:00", "2012-02-09 13:59:59"],
		[1828, 1825.7, 1828.6, 1825.1, 27451107.6, 15029, "2012-02-09 14:00:00", "2012-02-09 14:09:59"],
		[1825.8, 1826.6, 1826.8, 1825.5, 7462334.9, 4087, "2012-02-09 14:10:00", "2012-02-09 14:19:59"],
		[1826, 1825.9, 1828.8, 1825.6, 51216708.1, 28035, "2012-02-09 14:20:00", "2012-02-09 14:29:59"],
		[1825.9, 1824.3, 1827, 1824, 45395146.5, 24875, "2012-02-09 14:30:00", "2012-02-09 14:39:59"],
		[1824.5, 1820.1, 1824.5, 1818, 224824009.5, 123543, "2012-02-09 14:40:00", "2012-02-09 14:49:59"],
		[1820, 1822.6, 1823.8, 1819.7, 21976729.1, 12065, "2012-02-09 14:50:00", "2012-02-09 14:59:59"],
		[1823, 1820, 1823, 1819, 29340179.7, 16115, "2012-02-09 15:00:00", "2012-02-09 15:09:59"],
		[1820, 1820.5, 1821.2, 1819, 43097928.6, 23679, "2012-02-09 15:10:00", "2012-02-09 15:19:59"],
		[1820.6, 1816.2, 1820.6, 1815.5, 77492533.4, 42620, "2012-02-09 15:20:00", "2012-02-09 15:29:59"],
		[1816.2, 1810.6, 1816.4, 1810.3, 75594698.2, 41710, "2012-02-09 15:30:00", "2012-02-09 15:39:59"],
		[1810.8, 1804.3, 1813, 1804.1, 91859758.6, 50778, "2012-02-09 15:40:00", "2012-02-09 15:49:59"],
		[1804.5, 1798.6, 1806.4, 1798.1, 201408214.5, 111780, "2012-02-09 15:50:00", "2012-02-09 15:59:59"],
		[1798.6, 1797, 1799.3, 1788.4, 323651739.2, 180476, "2012-02-09 16:00:00", "2012-02-09 16:09:59"],
		[1797, 1801.1, 1802.6, 1796.5, 109188356.2, 60640, "2012-02-09 16:10:00", "2012-02-09 16:19:59"],
		[1801, 1804.7, 1804.7, 1799.6, 24469488.2, 13580, "2012-02-09 16:20:00", "2012-02-09 16:29:59"],
		[1803.7, 1804, 1806, 1802, 24822363.2, 13757, "2012-02-09 16:30:00", "2012-02-09 16:39:59"],
		[1803.8, 1804.3, 1806, 1802.3, 48482111.3, 26863, "2012-02-09 16:40:00", "2012-02-09 16:49:59"],
		[1803.3, 1811, 1813, 1803.3, 125182693.2, 69173, "2012-02-09 16:50:00", "2012-02-09 16:59:59"],
		[1811, 1812, 1812, 1809, 36625169.4, 20232, "2012-02-09 17:00:00", "2012-02-09 17:09:59"],
		[1811.9, 1815, 1821.2, 1810.5, 209232832.5, 115156, "2012-02-09 17:10:00", "2012-02-09 17:19:59"],
		[1815, 1811.3, 1815.4, 1809, 52136545.4, 28785, "2012-02-09 17:20:00", "2012-02-09 17:29:59"],
		[1811.4, 1811.2, 1815, 1807.2, 117363883.8, 64830, "2012-02-09 17:30:00", "2012-02-09 17:39:59"],
		[1811.2, 1812.9, 1815, 1809.6, 52301180.2, 28871, "2012-02-09 17:40:00", "2012-02-09 17:49:59"],
		[1814.2, 1814.2, 1818.6, 1813, 36524111.9, 20117, "2012-02-09 17:50:00", "2012-02-09 17:59:59"],
		[1815.3, 1815.3, 1817.5, 1813.1, 33347336.5, 18373, "2012-02-09 18:00:00", "2012-02-09 18:09:59"],
		[1815.2, 1814.7, 1816.9, 1811.5, 42552417.6, 23457, "2012-02-09 18:10:00", "2012-02-09 18:19:59"],
		[1814.7, 1816.6, 1816.7, 1813.2, 76560840.6, 42183, "2012-02-09 18:20:00", "2012-02-09 18:29:59"],
		[1816.6, 1805.6, 1816.9, 1805.6, 140692319.5, 77664, "2012-02-09 18:30:00", "2012-02-09 18:39:59"],
		[1806.2, 1806, 1811.8, 1803.4, 120032302, 66407, "2012-02-09 18:40:00", "2012-02-09 18:49:59"],
		[1804, 1809, 1809.8, 1800.6, 34786902.1, 19256, "2012-02-10 10:00:00", "2012-02-10 10:09:59"],
		[1808.1, 1810, 1810.3, 1806.3, 69295508.4, 38319, "2012-02-10 10:10:00", "2012-02-10 10:19:59"],
		[1810.2, 1808.8, 1811.7, 1807.1, 41090373.3, 22709, "2012-02-10 10:20:00", "2012-02-10 10:29:59"],
		[1807.9, 1810, 1810.4, 1806, 74331183.2, 41100, "2012-02-10 10:30:00", "2012-02-10 10:39:59"],
		[1810, 1811.9, 1813.3, 1808.2, 40555831.4, 22393, "2012-02-10 10:40:00", "2012-02-10 10:49:59"],
		[1811.9, 1810.3, 1812.4, 1808.4, 21661428.1, 11969, "2012-02-10 10:50:00", "2012-02-10 10:59:59"],
		[1810.3, 1808, 1812, 1808, 38370055.2, 21205, "2012-02-10 11:00:00", "2012-02-10 11:09:59"],
		[1808, 1799.4, 1808, 1797, 84197384.5, 46722, "2012-02-10 11:10:00", "2012-02-10 11:19:59"],
		[1799, 1803, 1803.5, 1797, 84287381.2, 46848, "2012-02-10 11:20:00", "2012-02-10 11:29:59"],
		[1802.2, 1798.9, 1802.2, 1797.2, 33805545.4, 18790, "2012-02-10 11:30:00", "2012-02-10 11:39:59"],
		[1798.9, 1796.4, 1799.7, 1795.6, 45958516, 25571, "2012-02-10 11:40:00", "2012-02-10 11:49:59"],
		[1796.1, 1797, 1798, 1795.2, 36181165, 20149, "2012-02-10 11:50:00", "2012-02-10 11:59:59"],
		[1797, 1801.1, 1802, 1795.2, 36287619.4, 20192, "2012-02-10 12:00:00", "2012-02-10 12:09:59"],
		[1801.8, 1804.1, 1805.9, 1797.7, 42361662.2, 23495, "2012-02-10 12:10:00", "2012-02-10 12:19:59"],
		[1804.9, 1804, 1807, 1803.3, 99586564.5, 55176, "2012-02-10 12:20:00", "2012-02-10 12:29:59"],
		[1805, 1805.6, 1806.5, 1804.5, 37169251.9, 20587, "2012-02-10 12:30:00", "2012-02-10 12:39:59"],
		[1805.2, 1805.8, 1807, 1804.1, 72545636.2, 40178, "2012-02-10 12:40:00", "2012-02-10 12:49:59"],
		[1805.9, 1809.4, 1809.9, 1805.5, 70313792.9, 38898, "2012-02-10 12:50:00", "2012-02-10 12:59:59"],
		[1809.7, 1810.8, 1811, 1807.7, 49753109.5, 27490, "2012-02-10 13:00:00", "2012-02-10 13:09:59"],
		[1811, 1811.3, 1813, 1808.5, 182131248.2, 100532, "2012-02-10 13:10:00", "2012-02-10 13:19:59"],
		[1811, 1808.9, 1811.4, 1807.7, 44417125.8, 24540, "2012-02-10 13:20:00", "2012-02-10 13:29:59"],
		[1809.5, 1808.3, 1811.5, 1806.7, 107256593.7, 59342, "2012-02-10 13:30:00", "2012-02-10 13:39:59"],
		[1808.9, 1806, 1810.9, 1806, 40193700.6, 22224, "2012-02-10 13:40:00", "2012-02-10 13:49:59"],
		[1806, 1809.1, 1810.7, 1806, 63619729.8, 35192, "2012-02-10 13:50:00", "2012-02-10 13:59:59"],
		[1810, 1810, 1811.1, 1808.1, 152300299.1, 84154, "2012-02-10 14:00:00", "2012-02-10 14:09:59"],
		[1810, 1806, 1811.5, 1806, 93399705.5, 51613, "2012-02-10 14:10:00", "2012-02-10 14:19:59"],
		[1806, 1806, 1807.1, 1805.1, 32461419.3, 17974, "2012-02-10 14:20:00", "2012-02-10 14:29:59"],
		[1806, 1807.2, 1809.3, 1805, 69740343.9, 38590, "2012-02-10 14:30:00", "2012-02-10 14:39:59"],
		[1807.1, 1807, 1808.4, 1806, 24642186.9, 13639, "2012-02-10 14:40:00", "2012-02-10 14:49:59"],
		[1807.1, 1807.3, 1808.2, 1806.6, 4732717.3, 2618, "2012-02-10 14:50:00", "2012-02-10 14:59:59"],
		[1807.1, 1810, 1810, 1807.1, 18084820.9, 9993, "2012-02-10 15:00:00", "2012-02-10 15:09:59"],
		[1809.6, 1809.3, 1810, 1808, 4550709.1, 2515, "2012-02-10 15:10:00", "2012-02-10 15:19:59"],
		[1809.3, 1809, 1811, 1807.6, 23843165.2, 13177, "2012-02-10 15:20:00", "2012-02-10 15:29:59"],
		[1809.3, 1808.4, 1809.8, 1805.5, 23068967.4, 12763, "2012-02-10 15:30:00", "2012-02-10 15:39:59"],
		[1808.4, 1811.5, 1811.5, 1808.2, 51709058.7, 28559, "2012-02-10 15:40:00", "2012-02-10 15:49:59"],
		[1811.5, 1810.2, 1811.6, 1809.2, 68150682.1, 37633, "2012-02-10 15:50:00", "2012-02-10 15:59:59"],
		[1810.5, 1809.2, 1810.6, 1808, 47540451.7, 26267, "2012-02-10 16:00:00", "2012-02-10 16:09:59"],
		[1809.3, 1804.7, 1809.3, 1804.3, 82648342.5, 45746, "2012-02-10 16:10:00", "2012-02-10 16:19:59"],
		[1804.8, 1804.6, 1808.6, 1804.1, 83565420.5, 46281, "2012-02-10 16:20:00", "2012-02-10 16:29:59"],
		[1804.6, 1806, 1808, 1804.5, 18276648.2, 10123, "2012-02-10 16:30:00", "2012-02-10 16:39:59"],
		[1806, 1806.1, 1808.7, 1804.8, 61770320.3, 34205, "2012-02-10 16:40:00", "2012-02-10 16:49:59"],
		[1806.2, 1806.7, 1807.9, 1805.6, 13194530.1, 7302, "2012-02-10 16:50:00", "2012-02-10 16:59:59"],
		[1807, 1808.8, 1809, 1805, 16161036.3, 8946, "2012-02-10 17:00:00", "2012-02-10 17:09:59"],
		[1808.2, 1808.1, 1809.7, 1807.5, 18280360.4, 10107, "2012-02-10 17:10:00", "2012-02-10 17:19:59"],
		[1808.2, 1810.4, 1810.7, 1806.9, 86999987, 48092, "2012-02-10 17:20:00", "2012-02-10 17:29:59"],
		[1810.4, 1808.6, 1810.5, 1807.1, 34486221.9, 19063, "2012-02-10 17:30:00", "2012-02-10 17:39:59"],
		[1808.7, 1808.4, 1810.7, 1807.2, 68228267.5, 37717, "2012-02-10 17:40:00", "2012-02-10 17:49:59"],
		[1808.4, 1809.5, 1810, 1807, 13556336.6, 7496, "2012-02-10 17:50:00", "2012-02-10 17:59:59"],
		[1809, 1809, 1810, 1807.7, 24077436.8, 13306, "2012-02-10 18:00:00", "2012-02-10 18:09:59"],
		[1809.5, 1809.2, 1809.8, 1807.4, 39756936.3, 21983, "2012-02-10 18:10:00", "2012-02-10 18:19:59"],
		[1809.2, 1810, 1810, 1808.5, 48280040.2, 26686, "2012-02-10 18:20:00", "2012-02-10 18:29:59"],
		[1809.9, 1808.1, 1810, 1807.1, 140456568.6, 77663, "2012-02-10 18:30:00", "2012-02-10 18:39:59"],
		[1808.2, 1810.6, 1810.7, 1806.8, 238309460.7, 131676, "2012-02-10 18:40:00", "2012-02-10 18:49:59"],
		[1820.1, 1825, 1828, 1817.8, 179343612.5, 98423, "2012-02-13 10:00:00", "2012-02-13 10:09:59"],
		[1825, 1827, 1828.4, 1824.8, 98297208.5, 53810, "2012-02-13 10:10:00", "2012-02-13 10:19:59"],
		[1828, 1830.1, 1834, 1828, 186032595.3, 101620, "2012-02-13 10:20:00", "2012-02-13 10:29:59"],
		[1830.4, 1831.3, 1834.5, 1830.4, 97809804.8, 53364, "2012-02-13 10:30:00", "2012-02-13 10:39:59"],
		[1831.2, 1829.4, 1832, 1829, 25745333.8, 14064, "2012-02-13 10:40:00", "2012-02-13 10:49:59"],
		[1830.3, 1832, 1832, 1829.1, 8512147.3, 4650, "2012-02-13 10:50:00", "2012-02-13 10:59:59"],
		[1832, 1837.7, 1837.9, 1831.9, 122303016.7, 66632, "2012-02-13 11:00:00", "2012-02-13 11:09:59"],
		[1837.7, 1836.8, 1837.8, 1835.6, 9843157, 5359, "2012-02-13 11:10:00", "2012-02-13 11:19:59"],
		[1836.1, 1834.5, 1836.9, 1833, 58341182.8, 31810, "2012-02-13 11:20:00", "2012-02-13 11:29:59"],
		[1834.3, 1833.3, 1834.9, 1833, 74066741.6, 40379, "2012-02-13 11:30:00", "2012-02-13 11:39:59"],
		[1833.3, 1832, 1834, 1831.6, 10972567.9, 5988, "2012-02-13 11:40:00", "2012-02-13 11:49:59"],
		[1832.7, 1833.8, 1833.9, 1832, 39082525, 21319, "2012-02-13 11:50:00", "2012-02-13 11:59:59"],
		[1833.8, 1834, 1835, 1832.5, 152607268.4, 83186, "2012-02-13 12:00:00", "2012-02-13 12:09:59"],
		[1834, 1833.7, 1834.9, 1832.2, 33032573.5, 18013, "2012-02-13 12:10:00", "2012-02-13 12:19:59"],
		[1833.6, 1831.7, 1833.6, 1831, 54697073.7, 29858, "2012-02-13 12:20:00", "2012-02-13 12:29:59"],
		[1831.7, 1832.2, 1832.9, 1831.3, 13867799.7, 7570, "2012-02-13 12:30:00", "2012-02-13 12:39:59"],
		[1832.2, 1834.1, 1834.5, 1831.7, 26001218, 14185, "2012-02-13 12:40:00", "2012-02-13 12:49:59"],
		[1834.1, 1832.9, 1837, 1831.1, 282581482.2, 154045, "2012-02-13 12:50:00", "2012-02-13 12:59:59"],
		[1833.3, 1833.8, 1834, 1831.2, 12976172.4, 7081, "2012-02-13 13:00:00", "2012-02-13 13:09:59"],
		[1833.9, 1831.5, 1833.9, 1830.3, 52222545.4, 28498, "2012-02-13 13:10:00", "2012-02-13 13:19:59"],
		[1831.5, 1832.5, 1833.4, 1830.9, 15742729.4, 8590, "2012-02-13 13:20:00", "2012-02-13 13:29:59"],
		[1832.9, 1833, 1833.4, 1830.5, 7032663.8, 3839, "2012-02-13 13:30:00", "2012-02-13 13:39:59"],
		[1833.4, 1837, 1837, 1832.4, 23494669.2, 12803, "2012-02-13 13:40:00", "2012-02-13 13:49:59"],
		[1837, 1835.4, 1837, 1833.8, 12952046.4, 7056, "2012-02-13 13:50:00", "2012-02-13 13:59:59"],
		[1835.2, 1834.9, 1836.2, 1833.4, 14415301.8, 7856, "2012-02-13 14:00:00", "2012-02-13 14:09:59"],
		[1835, 1835.2, 1837.5, 1834, 50006365.9, 27234, "2012-02-13 14:10:00", "2012-02-13 14:19:59"],
		[1836, 1833.9, 1836, 1831.9, 15825981.3, 8633, "2012-02-13 14:20:00", "2012-02-13 14:29:59"],
		[1833.9, 1835.6, 1837.5, 1831.9, 37491905, 20435, "2012-02-13 14:30:00", "2012-02-13 14:39:59"],
		[1836.3, 1841.2, 1842.7, 1835.5, 96198793.9, 52310, "2012-02-13 14:40:00", "2012-02-13 14:49:59"],
		[1841.9, 1843.9, 1844.7, 1840, 49438965.3, 26825, "2012-02-13 14:50:00", "2012-02-13 14:59:59"],
		[1843.4, 1843.7, 1845, 1842.6, 67328971, 36504, "2012-02-13 15:00:00", "2012-02-13 15:09:59"],
		[1844.6, 1845.9, 1845.9, 1843.6, 25894082.6, 14035, "2012-02-13 15:10:00", "2012-02-13 15:19:59"],
		[1845.9, 1846.5, 1847.1, 1845, 26507994.7, 14359, "2012-02-13 15:20:00", "2012-02-13 15:29:59"],
		[1846.3, 1847.1, 1848, 1845.4, 36891053.7, 19968, "2012-02-13 15:30:00", "2012-02-13 15:39:59"],
		[1847.7, 1845.8, 1848, 1845.5, 14081365.2, 7625, "2012-02-13 15:40:00", "2012-02-13 15:49:59"],
		[1846, 1845.6, 1847, 1845.4, 50896995.1, 27569, "2012-02-13 15:50:00", "2012-02-13 15:59:59"],
		[1846.3, 1845.6, 1846.5, 1845, 56379111.4, 30553, "2012-02-13 16:00:00", "2012-02-13 16:09:59"],
		[1846.4, 1848.7, 1849, 1846, 37958674, 20544, "2012-02-13 16:10:00", "2012-02-13 16:19:59"],
		[1848.8, 1845.9, 1848.8, 1844.3, 38031374, 20602, "2012-02-13 16:20:00", "2012-02-13 16:29:59"],
		[1845.9, 1844.3, 1848, 1844.3, 17806796.8, 9647, "2012-02-13 16:30:00", "2012-02-13 16:39:59"],
		[1845.2, 1842.8, 1846.7, 1842, 39432936.7, 21392, "2012-02-13 16:40:00", "2012-02-13 16:49:59"],
		[1842.6, 1845.9, 1846.7, 1841, 31331655.3, 16990, "2012-02-13 16:50:00", "2012-02-13 16:59:59"],
		[1845.5, 1843.7, 1847, 1843.2, 24298514.9, 13170, "2012-02-13 17:00:00", "2012-02-13 17:09:59"],
		[1844.6, 1843.7, 1844.7, 1842.7, 3858638.8, 2093, "2012-02-13 17:10:00", "2012-02-13 17:19:59"],
		[1843.7, 1842, 1844, 1841, 17170618.6, 9320, "2012-02-13 17:20:00", "2012-02-13 17:29:59"],
		[1842, 1842, 1842.8, 1839.5, 62537100.9, 33972, "2012-02-13 17:30:00", "2012-02-13 17:39:59"],
		[1842, 1841.5, 1844.4, 1841.1, 13100177.2, 7109, "2012-02-13 17:40:00", "2012-02-13 17:49:59"],
		[1841.5, 1840, 1842.5, 1839, 33973179.2, 18462, "2012-02-13 17:50:00", "2012-02-13 17:59:59"],
		[1840, 1840.6, 1841.3, 1838.7, 33769538.5, 18357, "2012-02-13 18:00:00", "2012-02-13 18:09:59"],
		[1840.6, 1839.7, 1841.8, 1839.5, 20605086, 11194, "2012-02-13 18:10:00", "2012-02-13 18:19:59"],
		[1839.7, 1841, 1842.3, 1839.6, 19526875.5, 10605, "2012-02-13 18:20:00", "2012-02-13 18:29:59"],
		[1841, 1843, 1844.5, 1839.6, 65159863.7, 35381, "2012-02-13 18:30:00", "2012-02-13 18:39:59"],
		[1843.2, 1842.7, 1847.5, 1842, 163164488.7, 88429, "2012-02-13 18:40:00", "2012-02-13 18:49:59"],
		[1840, 1851.6, 1857.1, 1839.9, 124358742.8, 67199, "2012-02-14 10:00:00", "2012-02-14 10:09:59"],
		[1851, 1853.1, 1853.1, 1850.4, 62269192.9, 33624, "2012-02-14 10:10:00", "2012-02-14 10:19:59"],
		[1853.1, 1855, 1855.8, 1851.3, 66710159.5, 35983, "2012-02-14 10:20:00", "2012-02-14 10:29:59"],
		[1854.4, 1854.6, 1855.8, 1851.3, 106329781.3, 57367, "2012-02-14 10:30:00", "2012-02-14 10:39:59"],
		[1854.2, 1854.2, 1856.6, 1853.3, 47623585.2, 25674, "2012-02-14 10:40:00", "2012-02-14 10:49:59"],
		[1854.1, 1854.8, 1855.3, 1853.6, 14039990.3, 7572, "2012-02-14 10:50:00", "2012-02-14 10:59:59"],
		[1854.8, 1851.6, 1855.8, 1850, 42429804.9, 22908, "2012-02-14 11:00:00", "2012-02-14 11:09:59"],
		[1851.7, 1852.5, 1854.6, 1851.1, 11175498.7, 6033, "2012-02-14 11:10:00", "2012-02-14 11:19:59"],
		[1852.6, 1854.5, 1854.8, 1851.3, 27612285.9, 14904, "2012-02-14 11:20:00", "2012-02-14 11:29:59"]
	]
}}
